%YAML 1.1
%TAG !u! tag:unity3d.com,2011:
--- !u!74 &7400000
AnimationClip:
  m_ObjectHideFlags: 0
  m_CorrespondingSourceObject: {fileID: 0}
  m_PrefabInstance: {fileID: 0}
  m_PrefabAsset: {fileID: 0}
  m_Name: Attack South
  serializedVersion: 6
  m_Legacy: 0
  m_Compressed: 0
  m_UseHighQualityCurve: 1
  m_RotationCurves: []
  m_CompressedRotationCurves: []
  m_EulerCurves: []
  m_PositionCurves: []
  m_ScaleCurves: []
  m_FloatCurves: []
  m_PPtrCurves:
  - curve:
    - time: 0
      value: {fileID: -5324315217130814863, guid: 2f6457ab9bbcf8d4fa36463528238dc4,
        type: 3}
    - time: 0.083333336
      value: {fileID: 4342753624703132360, guid: 2f6457ab9bbcf8d4fa36463528238dc4,
        type: 3}
    - time: 0.16666667
      value: {fileID: -1551952223674386123, guid: 2f6457ab9bbcf8d4fa36463528238dc4,
        type: 3}
    - time: 0.25
      value: {fileID: 5281307811727675333, guid: 2f6457ab9bbcf8d4fa36463528238dc4,
        type: 3}
    - time: 0.33333334
      value: {fileID: 5281307811727675333, guid: 2f6457ab9bbcf8d4fa36463528238dc4,
        type: 3}
    - time: 0.41666666
      value: {fileID: -2380715090797418048, guid: 2f6457ab9bbcf8d4fa36463528238dc4,
        type: 3}
    - time: 0.5
      value: {fileID: -6284581481140019396, guid: 2f6457ab9bbcf8d4fa36463528238dc4,
        type: 3}
    - time: 0.5833333
      value: {fileID: 3866103159931122592, guid: 2f6457ab9bbcf8d4fa36463528238dc4,
        type: 3}
    - time: 0.6666667
      value: {fileID: 3135520500640413137, guid: 2f6457ab9bbcf8d4fa36463528238dc4,
        type: 3}
    - time: 0.75
      value: {fileID: 7331412986567658363, guid: 2f6457ab9bbcf8d4fa36463528238dc4,
        type: 3}
    - time: 0.8333333
      value: {fileID: -6504202284821447205, guid: 2f6457ab9bbcf8d4fa36463528238dc4,
        type: 3}
    - time: 0.9166667
      value: {fileID: 5216039245763579879, guid: 2f6457ab9bbcf8d4fa36463528238dc4,
        type: 3}
    - time: 1
      value: {fileID: 1025821085795274943, guid: 2f6457ab9bbcf8d4fa36463528238dc4,
        type: 3}
    - time: 1.0833334
      value: {fileID: -8636164719950883479, guid: 2f6457ab9bbcf8d4fa36463528238dc4,
        type: 3}
    - time: 1.1666666
      value: {fileID: 5925123908700656451, guid: 2f6457ab9bbcf8d4fa36463528238dc4,
        type: 3}
    - time: 1.25
      value: {fileID: -5799311685894437435, guid: 2f6457ab9bbcf8d4fa36463528238dc4,
        type: 3}
    - time: 1.3333334
      value: {fileID: -5321195944375022548, guid: 2f6457ab9bbcf8d4fa36463528238dc4,
        type: 3}
    - time: 1.4166666
      value: {fileID: -800024410011848882, guid: 2f6457ab9bbcf8d4fa36463528238dc4,
        type: 3}
    - time: 1.5
      value: {fileID: 6889874222206062270, guid: 2f6457ab9bbcf8d4fa36463528238dc4,
        type: 3}
    attribute: m_Sprite
    path: 
    classID: 212
    script: {fileID: 0}
  m_SampleRate: 12
  m_WrapMode: 0
  m_Bounds:
    m_Center: {x: 0, y: 0, z: 0}
    m_Extent: {x: 0, y: 0, z: 0}
  m_ClipBindingConstant:
    genericBindings:
    - serializedVersion: 2
      path: 0
      attribute: 0
      script: {fileID: 0}
      typeID: 212
      customType: 23
      isPPtrCurve: 1
    pptrCurveMapping:
    - {fileID: -5324315217130814863, guid: 2f6457ab9bbcf8d4fa36463528238dc4, type: 3}
    - {fileID: 4342753624703132360, guid: 2f6457ab9bbcf8d4fa36463528238dc4, type: 3}
    - {fileID: -1551952223674386123, guid: 2f6457ab9bbcf8d4fa36463528238dc4, type: 3}
    - {fileID: 5281307811727675333, guid: 2f6457ab9bbcf8d4fa36463528238dc4, type: 3}
    - {fileID: 5281307811727675333, guid: 2f6457ab9bbcf8d4fa36463528238dc4, type: 3}
    - {fileID: -2380715090797418048, guid: 2f6457ab9bbcf8d4fa36463528238dc4, type: 3}
    - {fileID: -6284581481140019396, guid: 2f6457ab9bbcf8d4fa36463528238dc4, type: 3}
    - {fileID: 3866103159931122592, guid: 2f6457ab9bbcf8d4fa36463528238dc4, type: 3}
    - {fileID: 3135520500640413137, guid: 2f6457ab9bbcf8d4fa36463528238dc4, type: 3}
    - {fileID: 7331412986567658363, guid: 2f6457ab9bbcf8d4fa36463528238dc4, type: 3}
    - {fileID: -6504202284821447205, guid: 2f6457ab9bbcf8d4fa36463528238dc4, type: 3}
    - {fileID: 5216039245763579879, guid: 2f6457ab9bbcf8d4fa36463528238dc4, type: 3}
    - {fileID: 1025821085795274943, guid: 2f6457ab9bbcf8d4fa36463528238dc4, type: 3}
    - {fileID: -8636164719950883479, guid: 2f6457ab9bbcf8d4fa36463528238dc4, type: 3}
    - {fileID: 5925123908700656451, guid: 2f6457ab9bbcf8d4fa36463528238dc4, type: 3}
    - {fileID: -5799311685894437435, guid: 2f6457ab9bbcf8d4fa36463528238dc4, type: 3}
    - {fileID: -5321195944375022548, guid: 2f6457ab9bbcf8d4fa36463528238dc4, type: 3}
    - {fileID: -800024410011848882, guid: 2f6457ab9bbcf8d4fa36463528238dc4, type: 3}
    - {fileID: 6889874222206062270, guid: 2f6457ab9bbcf8d4fa36463528238dc4, type: 3}
  m_AnimationClipSettings:
    serializedVersion: 2
    m_AdditiveReferencePoseClip: {fileID: 0}
    m_AdditiveReferencePoseTime: 0
    m_StartTime: 0
    m_StopTime: 1.5833334
    m_OrientationOffsetY: 0
    m_Level: 0
    m_CycleOffset: 0
    m_HasAdditiveReferencePose: 0
    m_LoopTime: 0
    m_LoopBlend: 0
    m_LoopBlendOrientation: 0
    m_LoopBlendPositionY: 0
    m_LoopBlendPositionXZ: 0
    m_KeepOriginalOrientation: 0
    m_KeepOriginalPositionY: 1
    m_KeepOriginalPositionXZ: 0
    m_HeightFromFeet: 0
    m_Mirror: 0
  m_EditorCurves: []
  m_EulerEditorCurves: []
  m_HasGenericRootTransform: 0
  m_HasMotionFloatCurves: 0
  m_Events:
  - time: 0.6666667
    functionName: Attack
    data: 
    objectReferenceParameter: {fileID: 0}
    floatParameter: 0
    intParameter: 0
    messageOptions: 0
