%YAML 1.1
%TAG !u! tag:unity3d.com,2011:
--- !u!74 &7400000
AnimationClip:
  m_ObjectHideFlags: 0
  m_CorrespondingSourceObject: {fileID: 0}
  m_PrefabInstance: {fileID: 0}
  m_PrefabAsset: {fileID: 0}
  m_Name: Attack North
  serializedVersion: 6
  m_Legacy: 0
  m_Compressed: 0
  m_UseHighQualityCurve: 1
  m_RotationCurves: []
  m_CompressedRotationCurves: []
  m_EulerCurves: []
  m_PositionCurves: []
  m_ScaleCurves: []
  m_FloatCurves: []
  m_PPtrCurves:
  - curve:
    - time: 0
      value: {fileID: -4576447858587747805, guid: 35409fd71e619984c99ae6ca8c8f4797,
        type: 3}
    - time: 0.083333336
      value: {fileID: 3369397264611800579, guid: 35409fd71e619984c99ae6ca8c8f4797,
        type: 3}
    - time: 0.16666667
      value: {fileID: 5075147226684186574, guid: 35409fd71e619984c99ae6ca8c8f4797,
        type: 3}
    - time: 0.25
      value: {fileID: -8116704834263125474, guid: 35409fd71e619984c99ae6ca8c8f4797,
        type: 3}
    - time: 0.33333334
      value: {fileID: 5764105310539964768, guid: 35409fd71e619984c99ae6ca8c8f4797,
        type: 3}
    - time: 0.41666666
      value: {fileID: 6893546271423876202, guid: 35409fd71e619984c99ae6ca8c8f4797,
        type: 3}
    - time: 0.5
      value: {fileID: -7433259779375597760, guid: 35409fd71e619984c99ae6ca8c8f4797,
        type: 3}
    - time: 0.5833333
      value: {fileID: -5391727888534730794, guid: 35409fd71e619984c99ae6ca8c8f4797,
        type: 3}
    - time: 0.6666667
      value: {fileID: -2995610600785422216, guid: 35409fd71e619984c99ae6ca8c8f4797,
        type: 3}
    - time: 0.75
      value: {fileID: 5176381338196448885, guid: 35409fd71e619984c99ae6ca8c8f4797,
        type: 3}
    - time: 0.8333333
      value: {fileID: 2795743597626838820, guid: 35409fd71e619984c99ae6ca8c8f4797,
        type: 3}
    - time: 0.9166667
      value: {fileID: -3442487402422179812, guid: 6f219539a41a5e9449701f8334519e23,
        type: 3}
    - time: 1
      value: {fileID: 6908688825316407664, guid: 6f219539a41a5e9449701f8334519e23,
        type: 3}
    - time: 1.0833334
      value: {fileID: -4351222049578753107, guid: 6f219539a41a5e9449701f8334519e23,
        type: 3}
    - time: 1.1666666
      value: {fileID: -2769200758355423940, guid: 6f219539a41a5e9449701f8334519e23,
        type: 3}
    - time: 1.25
      value: {fileID: 5791573189560788421, guid: 6f219539a41a5e9449701f8334519e23,
        type: 3}
    - time: 1.3333334
      value: {fileID: -7946589011521861028, guid: 6f219539a41a5e9449701f8334519e23,
        type: 3}
    - time: 1.4166666
      value: {fileID: 5042238795372894186, guid: 6f219539a41a5e9449701f8334519e23,
        type: 3}
    - time: 1.5
      value: {fileID: 4136176509499468445, guid: 6f219539a41a5e9449701f8334519e23,
        type: 3}
    attribute: m_Sprite
    path: 
    classID: 212
    script: {fileID: 0}
  m_SampleRate: 12
  m_WrapMode: 0
  m_Bounds:
    m_Center: {x: 0, y: 0, z: 0}
    m_Extent: {x: 0, y: 0, z: 0}
  m_ClipBindingConstant:
    genericBindings:
    - serializedVersion: 2
      path: 0
      attribute: 0
      script: {fileID: 0}
      typeID: 212
      customType: 23
      isPPtrCurve: 1
    pptrCurveMapping:
    - {fileID: -4576447858587747805, guid: 35409fd71e619984c99ae6ca8c8f4797, type: 3}
    - {fileID: 3369397264611800579, guid: 35409fd71e619984c99ae6ca8c8f4797, type: 3}
    - {fileID: 5075147226684186574, guid: 35409fd71e619984c99ae6ca8c8f4797, type: 3}
    - {fileID: -8116704834263125474, guid: 35409fd71e619984c99ae6ca8c8f4797, type: 3}
    - {fileID: 5764105310539964768, guid: 35409fd71e619984c99ae6ca8c8f4797, type: 3}
    - {fileID: 6893546271423876202, guid: 35409fd71e619984c99ae6ca8c8f4797, type: 3}
    - {fileID: -7433259779375597760, guid: 35409fd71e619984c99ae6ca8c8f4797, type: 3}
    - {fileID: -5391727888534730794, guid: 35409fd71e619984c99ae6ca8c8f4797, type: 3}
    - {fileID: -2995610600785422216, guid: 35409fd71e619984c99ae6ca8c8f4797, type: 3}
    - {fileID: 5176381338196448885, guid: 35409fd71e619984c99ae6ca8c8f4797, type: 3}
    - {fileID: 2795743597626838820, guid: 35409fd71e619984c99ae6ca8c8f4797, type: 3}
    - {fileID: -3442487402422179812, guid: 6f219539a41a5e9449701f8334519e23, type: 3}
    - {fileID: 6908688825316407664, guid: 6f219539a41a5e9449701f8334519e23, type: 3}
    - {fileID: -4351222049578753107, guid: 6f219539a41a5e9449701f8334519e23, type: 3}
    - {fileID: -2769200758355423940, guid: 6f219539a41a5e9449701f8334519e23, type: 3}
    - {fileID: 5791573189560788421, guid: 6f219539a41a5e9449701f8334519e23, type: 3}
    - {fileID: -7946589011521861028, guid: 6f219539a41a5e9449701f8334519e23, type: 3}
    - {fileID: 5042238795372894186, guid: 6f219539a41a5e9449701f8334519e23, type: 3}
    - {fileID: 4136176509499468445, guid: 6f219539a41a5e9449701f8334519e23, type: 3}
  m_AnimationClipSettings:
    serializedVersion: 2
    m_AdditiveReferencePoseClip: {fileID: 0}
    m_AdditiveReferencePoseTime: 0
    m_StartTime: 0
    m_StopTime: 1.5833334
    m_OrientationOffsetY: 0
    m_Level: 0
    m_CycleOffset: 0
    m_HasAdditiveReferencePose: 0
    m_LoopTime: 0
    m_LoopBlend: 0
    m_LoopBlendOrientation: 0
    m_LoopBlendPositionY: 0
    m_LoopBlendPositionXZ: 0
    m_KeepOriginalOrientation: 0
    m_KeepOriginalPositionY: 1
    m_KeepOriginalPositionXZ: 0
    m_HeightFromFeet: 0
    m_Mirror: 0
  m_EditorCurves: []
  m_EulerEditorCurves: []
  m_HasGenericRootTransform: 0
  m_HasMotionFloatCurves: 0
  m_Events:
  - time: 0.6666667
    functionName: Attack
    data: 
    objectReferenceParameter: {fileID: 0}
    floatParameter: 0
    intParameter: 0
    messageOptions: 0
