%YAML 1.1
%TAG !u! tag:unity3d.com,2011:
--- !u!74 &7400000
AnimationClip:
  m_ObjectHideFlags: 0
  m_CorrespondingSourceObject: {fileID: 0}
  m_PrefabInstance: {fileID: 0}
  m_PrefabAsset: {fileID: 0}
  m_Name: AttackNorth
  serializedVersion: 6
  m_Legacy: 0
  m_Compressed: 0
  m_UseHighQualityCurve: 1
  m_RotationCurves: []
  m_CompressedRotationCurves: []
  m_EulerCurves: []
  m_PositionCurves: []
  m_ScaleCurves: []
  m_FloatCurves: []
  m_PPtrCurves:
  - curve:
    - time: 0
      value: {fileID: 2225523968715281400, guid: 4082a52b1f154af4c981799922f206a2,
        type: 3}
    - time: 0.083333336
      value: {fileID: 3215313219008848255, guid: 4082a52b1f154af4c981799922f206a2,
        type: 3}
    - time: 0.16666667
      value: {fileID: -8653411811007597091, guid: 4082a52b1f154af4c981799922f206a2,
        type: 3}
    - time: 0.25
      value: {fileID: -5213951077248303876, guid: 4082a52b1f154af4c981799922f206a2,
        type: 3}
    - time: 0.33333334
      value: {fileID: 6486776170986117629, guid: 4082a52b1f154af4c981799922f206a2,
        type: 3}
    - time: 0.41666666
      value: {fileID: 8264036331286299029, guid: 4082a52b1f154af4c981799922f206a2,
        type: 3}
    - time: 0.5
      value: {fileID: 2779098401992858479, guid: 4082a52b1f154af4c981799922f206a2,
        type: 3}
    - time: 0.5833333
      value: {fileID: 3643316534475061823, guid: 4082a52b1f154af4c981799922f206a2,
        type: 3}
    - time: 0.6666667
      value: {fileID: 7926240502497193951, guid: 4082a52b1f154af4c981799922f206a2,
        type: 3}
    - time: 0.75
      value: {fileID: 3593380982867753977, guid: 4082a52b1f154af4c981799922f206a2,
        type: 3}
    - time: 0.8333333
      value: {fileID: 8573443135304279879, guid: 4082a52b1f154af4c981799922f206a2,
        type: 3}
    attribute: m_Sprite
    path: 
    classID: 212
    script: {fileID: 0}
  m_SampleRate: 12
  m_WrapMode: 0
  m_Bounds:
    m_Center: {x: 0, y: 0, z: 0}
    m_Extent: {x: 0, y: 0, z: 0}
  m_ClipBindingConstant:
    genericBindings:
    - serializedVersion: 2
      path: 0
      attribute: 0
      script: {fileID: 0}
      typeID: 212
      customType: 23
      isPPtrCurve: 1
    pptrCurveMapping:
    - {fileID: 2225523968715281400, guid: 4082a52b1f154af4c981799922f206a2, type: 3}
    - {fileID: 3215313219008848255, guid: 4082a52b1f154af4c981799922f206a2, type: 3}
    - {fileID: -8653411811007597091, guid: 4082a52b1f154af4c981799922f206a2, type: 3}
    - {fileID: -5213951077248303876, guid: 4082a52b1f154af4c981799922f206a2, type: 3}
    - {fileID: 6486776170986117629, guid: 4082a52b1f154af4c981799922f206a2, type: 3}
    - {fileID: 8264036331286299029, guid: 4082a52b1f154af4c981799922f206a2, type: 3}
    - {fileID: 2779098401992858479, guid: 4082a52b1f154af4c981799922f206a2, type: 3}
    - {fileID: 3643316534475061823, guid: 4082a52b1f154af4c981799922f206a2, type: 3}
    - {fileID: 7926240502497193951, guid: 4082a52b1f154af4c981799922f206a2, type: 3}
    - {fileID: 3593380982867753977, guid: 4082a52b1f154af4c981799922f206a2, type: 3}
    - {fileID: 8573443135304279879, guid: 4082a52b1f154af4c981799922f206a2, type: 3}
  m_AnimationClipSettings:
    serializedVersion: 2
    m_AdditiveReferencePoseClip: {fileID: 0}
    m_AdditiveReferencePoseTime: 0
    m_StartTime: 0
    m_StopTime: 0.9166666
    m_OrientationOffsetY: 0
    m_Level: 0
    m_CycleOffset: 0
    m_HasAdditiveReferencePose: 0
    m_LoopTime: 1
    m_LoopBlend: 0
    m_LoopBlendOrientation: 0
    m_LoopBlendPositionY: 0
    m_LoopBlendPositionXZ: 0
    m_KeepOriginalOrientation: 0
    m_KeepOriginalPositionY: 1
    m_KeepOriginalPositionXZ: 0
    m_HeightFromFeet: 0
    m_Mirror: 0
  m_EditorCurves: []
  m_EulerEditorCurves: []
  m_HasGenericRootTransform: 0
  m_HasMotionFloatCurves: 0
  m_Events:
  - time: 0.6666667
    functionName: Attack
    data: 
    objectReferenceParameter: {fileID: 0}
    floatParameter: 0
    intParameter: 0
    messageOptions: 0
