%YAML 1.1
%TAG !u! tag:unity3d.com,2011:
--- !u!74 &7400000
AnimationClip:
  m_ObjectHideFlags: 0
  m_CorrespondingSourceObject: {fileID: 0}
  m_PrefabInstance: {fileID: 0}
  m_PrefabAsset: {fileID: 0}
  m_Name: attack_blue South
  serializedVersion: 6
  m_Legacy: 0
  m_Compressed: 0
  m_UseHighQualityCurve: 1
  m_RotationCurves: []
  m_CompressedRotationCurves: []
  m_EulerCurves: []
  m_PositionCurves: []
  m_ScaleCurves: []
  m_FloatCurves: []
  m_PPtrCurves:
  - curve:
    - time: 0
      value: {fileID: 4690836621168183854, guid: 49b55bf276a908841afdb505df1a7386,
        type: 3}
    - time: 0.083333336
      value: {fileID: 2844548764336315750, guid: 49b55bf276a908841afdb505df1a7386,
        type: 3}
    - time: 0.16666667
      value: {fileID: 7381482393475647538, guid: 49b55bf276a908841afdb505df1a7386,
        type: 3}
    - time: 0.25
      value: {fileID: -7385632468624803279, guid: 49b55bf276a908841afdb505df1a7386,
        type: 3}
    - time: 0.33333334
      value: {fileID: -5524803726157947223, guid: 49b55bf276a908841afdb505df1a7386,
        type: 3}
    - time: 0.41666666
      value: {fileID: -6833074408597695329, guid: 49b55bf276a908841afdb505df1a7386,
        type: 3}
    - time: 0.5
      value: {fileID: -8611276518719496978, guid: 49b55bf276a908841afdb505df1a7386,
        type: 3}
    - time: 0.5833333
      value: {fileID: 2370081811436246992, guid: 49b55bf276a908841afdb505df1a7386,
        type: 3}
    - time: 0.6666667
      value: {fileID: 8047508281663181366, guid: 49b55bf276a908841afdb505df1a7386,
        type: 3}
    attribute: m_Sprite
    path: 
    classID: 212
    script: {fileID: 0}
  m_SampleRate: 12
  m_WrapMode: 0
  m_Bounds:
    m_Center: {x: 0, y: 0, z: 0}
    m_Extent: {x: 0, y: 0, z: 0}
  m_ClipBindingConstant:
    genericBindings:
    - serializedVersion: 2
      path: 0
      attribute: 0
      script: {fileID: 0}
      typeID: 212
      customType: 23
      isPPtrCurve: 1
    pptrCurveMapping:
    - {fileID: 4690836621168183854, guid: 49b55bf276a908841afdb505df1a7386, type: 3}
    - {fileID: 2844548764336315750, guid: 49b55bf276a908841afdb505df1a7386, type: 3}
    - {fileID: 7381482393475647538, guid: 49b55bf276a908841afdb505df1a7386, type: 3}
    - {fileID: -7385632468624803279, guid: 49b55bf276a908841afdb505df1a7386, type: 3}
    - {fileID: -5524803726157947223, guid: 49b55bf276a908841afdb505df1a7386, type: 3}
    - {fileID: -6833074408597695329, guid: 49b55bf276a908841afdb505df1a7386, type: 3}
    - {fileID: -8611276518719496978, guid: 49b55bf276a908841afdb505df1a7386, type: 3}
    - {fileID: 2370081811436246992, guid: 49b55bf276a908841afdb505df1a7386, type: 3}
    - {fileID: 8047508281663181366, guid: 49b55bf276a908841afdb505df1a7386, type: 3}
  m_AnimationClipSettings:
    serializedVersion: 2
    m_AdditiveReferencePoseClip: {fileID: 0}
    m_AdditiveReferencePoseTime: 0
    m_StartTime: 0
    m_StopTime: 0.75
    m_OrientationOffsetY: 0
    m_Level: 0
    m_CycleOffset: 0
    m_HasAdditiveReferencePose: 0
    m_LoopTime: 1
    m_LoopBlend: 0
    m_LoopBlendOrientation: 0
    m_LoopBlendPositionY: 0
    m_LoopBlendPositionXZ: 0
    m_KeepOriginalOrientation: 0
    m_KeepOriginalPositionY: 1
    m_KeepOriginalPositionXZ: 0
    m_HeightFromFeet: 0
    m_Mirror: 0
  m_EditorCurves: []
  m_EulerEditorCurves: []
  m_HasGenericRootTransform: 0
  m_HasMotionFloatCurves: 0
  m_Events:
  - time: 0.25
    functionName: Attack
    data: 
    objectReferenceParameter: {fileID: 0}
    floatParameter: 0
    intParameter: 0
    messageOptions: 0
