%YAML 1.1
%TAG !u! tag:unity3d.com,2011:
--- !u!74 &7400000
AnimationClip:
  m_ObjectHideFlags: 0
  m_CorrespondingSourceObject: {fileID: 0}
  m_PrefabInstance: {fileID: 0}
  m_PrefabAsset: {fileID: 0}
  m_Name: Attack North
  serializedVersion: 6
  m_Legacy: 0
  m_Compressed: 0
  m_UseHighQualityCurve: 1
  m_RotationCurves: []
  m_CompressedRotationCurves: []
  m_EulerCurves: []
  m_PositionCurves: []
  m_ScaleCurves: []
  m_FloatCurves: []
  m_PPtrCurves:
  - curve:
    - time: 0
      value: {fileID: 5909846338901133224, guid: 3b784dd70ff344746b72c95735565b62,
        type: 3}
    - time: 0.083333336
      value: {fileID: 4146060167937118910, guid: 3b784dd70ff344746b72c95735565b62,
        type: 3}
    - time: 0.16666667
      value: {fileID: -719116423759530273, guid: 3b784dd70ff344746b72c95735565b62,
        type: 3}
    - time: 0.25
      value: {fileID: 4310041296862380445, guid: 3b784dd70ff344746b72c95735565b62,
        type: 3}
    - time: 0.33333334
      value: {fileID: 7846273135966590811, guid: 3b784dd70ff344746b72c95735565b62,
        type: 3}
    - time: 0.41666666
      value: {fileID: -6128593715684995791, guid: 3b784dd70ff344746b72c95735565b62,
        type: 3}
    - time: 0.5
      value: {fileID: -5288838655095562015, guid: 3b784dd70ff344746b72c95735565b62,
        type: 3}
    - time: 0.5833333
      value: {fileID: -5428819803559076186, guid: 3b784dd70ff344746b72c95735565b62,
        type: 3}
    - time: 0.6666667
      value: {fileID: -911100855417367182, guid: 3b784dd70ff344746b72c95735565b62,
        type: 3}
    - time: 0.75
      value: {fileID: -613246972641726328, guid: 3b784dd70ff344746b72c95735565b62,
        type: 3}
    - time: 0.8333333
      value: {fileID: 7685133812499695472, guid: 3b784dd70ff344746b72c95735565b62,
        type: 3}
    - time: 0.9166667
      value: {fileID: 3876910533035622708, guid: 6fa8b7d3ca1f1dd43b6f0775c93b7704,
        type: 3}
    - time: 1
      value: {fileID: -1544447352806842288, guid: 6fa8b7d3ca1f1dd43b6f0775c93b7704,
        type: 3}
    - time: 1.0833334
      value: {fileID: 1299095549210322133, guid: 6fa8b7d3ca1f1dd43b6f0775c93b7704,
        type: 3}
    - time: 1.1666666
      value: {fileID: 8369362463245347576, guid: 6fa8b7d3ca1f1dd43b6f0775c93b7704,
        type: 3}
    - time: 1.25
      value: {fileID: -7360376766547888778, guid: 6fa8b7d3ca1f1dd43b6f0775c93b7704,
        type: 3}
    - time: 1.3333334
      value: {fileID: 1584450900140066188, guid: 6fa8b7d3ca1f1dd43b6f0775c93b7704,
        type: 3}
    - time: 1.4166666
      value: {fileID: 3508256844102638610, guid: 6fa8b7d3ca1f1dd43b6f0775c93b7704,
        type: 3}
    - time: 1.5
      value: {fileID: -1260956458158580617, guid: 6fa8b7d3ca1f1dd43b6f0775c93b7704,
        type: 3}
    attribute: m_Sprite
    path: 
    classID: 212
    script: {fileID: 0}
  m_SampleRate: 12
  m_WrapMode: 0
  m_Bounds:
    m_Center: {x: 0, y: 0, z: 0}
    m_Extent: {x: 0, y: 0, z: 0}
  m_ClipBindingConstant:
    genericBindings:
    - serializedVersion: 2
      path: 0
      attribute: 0
      script: {fileID: 0}
      typeID: 212
      customType: 23
      isPPtrCurve: 1
    pptrCurveMapping:
    - {fileID: 5909846338901133224, guid: 3b784dd70ff344746b72c95735565b62, type: 3}
    - {fileID: 4146060167937118910, guid: 3b784dd70ff344746b72c95735565b62, type: 3}
    - {fileID: -719116423759530273, guid: 3b784dd70ff344746b72c95735565b62, type: 3}
    - {fileID: 4310041296862380445, guid: 3b784dd70ff344746b72c95735565b62, type: 3}
    - {fileID: 7846273135966590811, guid: 3b784dd70ff344746b72c95735565b62, type: 3}
    - {fileID: -6128593715684995791, guid: 3b784dd70ff344746b72c95735565b62, type: 3}
    - {fileID: -5288838655095562015, guid: 3b784dd70ff344746b72c95735565b62, type: 3}
    - {fileID: -5428819803559076186, guid: 3b784dd70ff344746b72c95735565b62, type: 3}
    - {fileID: -911100855417367182, guid: 3b784dd70ff344746b72c95735565b62, type: 3}
    - {fileID: -613246972641726328, guid: 3b784dd70ff344746b72c95735565b62, type: 3}
    - {fileID: 7685133812499695472, guid: 3b784dd70ff344746b72c95735565b62, type: 3}
    - {fileID: 3876910533035622708, guid: 6fa8b7d3ca1f1dd43b6f0775c93b7704, type: 3}
    - {fileID: -1544447352806842288, guid: 6fa8b7d3ca1f1dd43b6f0775c93b7704, type: 3}
    - {fileID: 1299095549210322133, guid: 6fa8b7d3ca1f1dd43b6f0775c93b7704, type: 3}
    - {fileID: 8369362463245347576, guid: 6fa8b7d3ca1f1dd43b6f0775c93b7704, type: 3}
    - {fileID: -7360376766547888778, guid: 6fa8b7d3ca1f1dd43b6f0775c93b7704, type: 3}
    - {fileID: 1584450900140066188, guid: 6fa8b7d3ca1f1dd43b6f0775c93b7704, type: 3}
    - {fileID: 3508256844102638610, guid: 6fa8b7d3ca1f1dd43b6f0775c93b7704, type: 3}
    - {fileID: -1260956458158580617, guid: 6fa8b7d3ca1f1dd43b6f0775c93b7704, type: 3}
  m_AnimationClipSettings:
    serializedVersion: 2
    m_AdditiveReferencePoseClip: {fileID: 0}
    m_AdditiveReferencePoseTime: 0
    m_StartTime: 0
    m_StopTime: 1.5833334
    m_OrientationOffsetY: 0
    m_Level: 0
    m_CycleOffset: 0
    m_HasAdditiveReferencePose: 0
    m_LoopTime: 0
    m_LoopBlend: 0
    m_LoopBlendOrientation: 0
    m_LoopBlendPositionY: 0
    m_LoopBlendPositionXZ: 0
    m_KeepOriginalOrientation: 0
    m_KeepOriginalPositionY: 1
    m_KeepOriginalPositionXZ: 0
    m_HeightFromFeet: 0
    m_Mirror: 0
  m_EditorCurves: []
  m_EulerEditorCurves: []
  m_HasGenericRootTransform: 0
  m_HasMotionFloatCurves: 0
  m_Events:
  - time: 0.6666667
    functionName: Attack
    data: 
    objectReferenceParameter: {fileID: 0}
    floatParameter: 0
    intParameter: 0
    messageOptions: 0
