%YAML 1.1
%TAG !u! tag:unity3d.com,2011:
--- !u!74 &7400000
AnimationClip:
  m_ObjectHideFlags: 0
  m_CorrespondingSourceObject: {fileID: 0}
  m_PrefabInstance: {fileID: 0}
  m_PrefabAsset: {fileID: 0}
  m_Name: Attack North
  serializedVersion: 6
  m_Legacy: 0
  m_Compressed: 0
  m_UseHighQualityCurve: 1
  m_RotationCurves: []
  m_CompressedRotationCurves: []
  m_EulerCurves: []
  m_PositionCurves: []
  m_ScaleCurves: []
  m_FloatCurves: []
  m_PPtrCurves:
  - curve:
    - time: 0
      value: {fileID: -1716814447368370620, guid: 697448c321dca6d4697862c37ba91765,
        type: 3}
    - time: 0.083333336
      value: {fileID: 7767292265720561433, guid: 697448c321dca6d4697862c37ba91765,
        type: 3}
    - time: 0.16666667
      value: {fileID: 777305361351436147, guid: 697448c321dca6d4697862c37ba91765,
        type: 3}
    - time: 0.25
      value: {fileID: -8783336157987992561, guid: 697448c321dca6d4697862c37ba91765,
        type: 3}
    - time: 0.33333334
      value: {fileID: 5167676095582024332, guid: 697448c321dca6d4697862c37ba91765,
        type: 3}
    - time: 0.41666666
      value: {fileID: 7235070117008980880, guid: 697448c321dca6d4697862c37ba91765,
        type: 3}
    - time: 0.5
      value: {fileID: 6792261345372574195, guid: 697448c321dca6d4697862c37ba91765,
        type: 3}
    - time: 0.5833333
      value: {fileID: 6837784646857626398, guid: 697448c321dca6d4697862c37ba91765,
        type: 3}
    - time: 0.6666667
      value: {fileID: 7235070117008980880, guid: 697448c321dca6d4697862c37ba91765,
        type: 3}
    - time: 0.75
      value: {fileID: -959535837383164028, guid: 697448c321dca6d4697862c37ba91765,
        type: 3}
    - time: 0.8333333
      value: {fileID: 5382535364691475346, guid: 697448c321dca6d4697862c37ba91765,
        type: 3}
    - time: 0.9166667
      value: {fileID: 5382535364691475346, guid: 697448c321dca6d4697862c37ba91765,
        type: 3}
    - time: 1
      value: {fileID: -1127265710540795103, guid: 697448c321dca6d4697862c37ba91765,
        type: 3}
    - time: 1.0833334
      value: {fileID: 8447469157717856867, guid: 697448c321dca6d4697862c37ba91765,
        type: 3}
    - time: 1.1666666
      value: {fileID: 4488302466083452389, guid: 697448c321dca6d4697862c37ba91765,
        type: 3}
    - time: 1.25
      value: {fileID: 9221330277527642179, guid: 697448c321dca6d4697862c37ba91765,
        type: 3}
    - time: 1.3333334
      value: {fileID: 7348372761435768137, guid: 697448c321dca6d4697862c37ba91765,
        type: 3}
    - time: 1.4166666
      value: {fileID: 2438634653995323834, guid: 697448c321dca6d4697862c37ba91765,
        type: 3}
    - time: 1.5
      value: {fileID: 7285565323802985189, guid: 697448c321dca6d4697862c37ba91765,
        type: 3}
    attribute: m_Sprite
    path: 
    classID: 212
    script: {fileID: 0}
  m_SampleRate: 12
  m_WrapMode: 0
  m_Bounds:
    m_Center: {x: 0, y: 0, z: 0}
    m_Extent: {x: 0, y: 0, z: 0}
  m_ClipBindingConstant:
    genericBindings:
    - serializedVersion: 2
      path: 0
      attribute: 0
      script: {fileID: 0}
      typeID: 212
      customType: 23
      isPPtrCurve: 1
    pptrCurveMapping:
    - {fileID: -1716814447368370620, guid: 697448c321dca6d4697862c37ba91765, type: 3}
    - {fileID: 7767292265720561433, guid: 697448c321dca6d4697862c37ba91765, type: 3}
    - {fileID: 777305361351436147, guid: 697448c321dca6d4697862c37ba91765, type: 3}
    - {fileID: -8783336157987992561, guid: 697448c321dca6d4697862c37ba91765, type: 3}
    - {fileID: 5167676095582024332, guid: 697448c321dca6d4697862c37ba91765, type: 3}
    - {fileID: 7235070117008980880, guid: 697448c321dca6d4697862c37ba91765, type: 3}
    - {fileID: 6792261345372574195, guid: 697448c321dca6d4697862c37ba91765, type: 3}
    - {fileID: 6837784646857626398, guid: 697448c321dca6d4697862c37ba91765, type: 3}
    - {fileID: 7235070117008980880, guid: 697448c321dca6d4697862c37ba91765, type: 3}
    - {fileID: -959535837383164028, guid: 697448c321dca6d4697862c37ba91765, type: 3}
    - {fileID: 5382535364691475346, guid: 697448c321dca6d4697862c37ba91765, type: 3}
    - {fileID: 5382535364691475346, guid: 697448c321dca6d4697862c37ba91765, type: 3}
    - {fileID: -1127265710540795103, guid: 697448c321dca6d4697862c37ba91765, type: 3}
    - {fileID: 8447469157717856867, guid: 697448c321dca6d4697862c37ba91765, type: 3}
    - {fileID: 4488302466083452389, guid: 697448c321dca6d4697862c37ba91765, type: 3}
    - {fileID: 9221330277527642179, guid: 697448c321dca6d4697862c37ba91765, type: 3}
    - {fileID: 7348372761435768137, guid: 697448c321dca6d4697862c37ba91765, type: 3}
    - {fileID: 2438634653995323834, guid: 697448c321dca6d4697862c37ba91765, type: 3}
    - {fileID: 7285565323802985189, guid: 697448c321dca6d4697862c37ba91765, type: 3}
  m_AnimationClipSettings:
    serializedVersion: 2
    m_AdditiveReferencePoseClip: {fileID: 0}
    m_AdditiveReferencePoseTime: 0
    m_StartTime: 0
    m_StopTime: 1.5833334
    m_OrientationOffsetY: 0
    m_Level: 0
    m_CycleOffset: 0
    m_HasAdditiveReferencePose: 0
    m_LoopTime: 0
    m_LoopBlend: 0
    m_LoopBlendOrientation: 0
    m_LoopBlendPositionY: 0
    m_LoopBlendPositionXZ: 0
    m_KeepOriginalOrientation: 0
    m_KeepOriginalPositionY: 1
    m_KeepOriginalPositionXZ: 0
    m_HeightFromFeet: 0
    m_Mirror: 0
  m_EditorCurves: []
  m_EulerEditorCurves: []
  m_HasGenericRootTransform: 0
  m_HasMotionFloatCurves: 0
  m_Events:
  - time: 0.6666667
    functionName: Attack
    data: 
    objectReferenceParameter: {fileID: 0}
    floatParameter: 0
    intParameter: 0
    messageOptions: 0
