%YAML 1.1
%TAG !u! tag:unity3d.com,2011:
--- !u!114 &11400000
MonoBehaviour:
  m_ObjectHideFlags: 0
  m_CorrespondingSourceObject: {fileID: 0}
  m_PrefabInstance: {fileID: 0}
  m_PrefabAsset: {fileID: 0}
  m_GameObject: {fileID: 0}
  m_Enabled: 1
  m_EditorHideFlags: 0
  m_Script: {fileID: 11500000, guid: b40e6612457614fd6a0792b963822e64, type: 3}
  m_Name: AnthillAttributes
  m_EditorClassIdentifier: 
  _name: 'Hormiguero '
  _image: {fileID: -7071191936757050934, guid: 6bafb38db26be5c4aa379889ce6f1705, type: 3}
  _description: En este edificio es donde se reclutan las hormigas guerreras!
  _maxHealth: 500
  _regenerationHealth: 0
  _moveSpeed: 0
  _damage: 0
  _attackSpeed: 0
  _range: 0
  _projectileSpeed: 0
  _energyTake: 0
  _biomassTake: 0
  _foodTake: 0
  _distanceToCollectionPoint: 0
  _costNormalEnergy: 0
  _costNormalBiomass: 25
  _costNormalFood: 5
  _evolutionNormalTime: 2
  _normalTroop: {fileID: 6402506378046781125, guid: 2fafedfa32278d14387cad85b93126aa,
    type: 3}
  _costUpgradedEnergy: 10
  _costUpgradedBiomass: 20
  _costUpgradedFood: 0
  _evolutionUpgradedTime: 0.75
  _upgradedTroop: {fileID: 6402506378046781125, guid: 213e5d71138728f4d9935d7cfebc5a25,
    type: 3}
