%YAML 1.1
%TAG !u! tag:unity3d.com,2011:
--- !u!114 &11400000
MonoBehaviour:
  m_ObjectHideFlags: 0
  m_CorrespondingSourceObject: {fileID: 0}
  m_PrefabInstance: {fileID: 0}
  m_PrefabAsset: {fileID: 0}
  m_GameObject: {fileID: 0}
  m_Enabled: 1
  m_EditorHideFlags: 0
  m_Script: {fileID: 11500000, guid: b40e6612457614fd6a0792b963822e64, type: 3}
  m_Name: MeleeAtributtesUpgraded
  m_EditorClassIdentifier: 
  _name: Hormigon
  _image: {fileID: -6549051480829351625, guid: 717522178b4ddf54d8fde9fc45ae2dba, type: 3}
  _description: Resistentes como una cucaracha, las hormigas que han evolucionado
    son la mejor unidad para aplastar a tus enemigos
  _littleDescription: "Gran resistencia al da\xF1o"
  _maxHealth: 150
  _regenerationHealth: 3.75
  _moveSpeed: 4
  _damage: 25
  _attackSpeed: 1.4
  _range: 2.25
  _projectileSpeed: 0
  _energyTake: 0
  _biomassTake: 0
  _foodTake: 0
  _distanceToCollectionPoint: 0
  _costNormalEnergy: 0
  _costNormalBiomass: 0
  _costNormalFood: 0
  _evolutionNormalTime: 0
  _normalTroop: {fileID: 0}
  _costUpgradedEnergy: 0
  _costUpgradedBiomass: 0
  _costUpgradedFood: 0
  _evolutionUpgradedTime: 0
  _upgradedTroop: {fileID: 0}
