%YAML 1.1
%TAG !u! tag:unity3d.com,2011:
--- !u!74 &7400000
AnimationClip:
  m_ObjectHideFlags: 0
  m_CorrespondingSourceObject: {fileID: 0}
  m_PrefabInstance: {fileID: 0}
  m_PrefabAsset: {fileID: 0}
  m_Name: Attack NorthWest
  serializedVersion: 6
  m_Legacy: 0
  m_Compressed: 0
  m_UseHighQualityCurve: 1
  m_RotationCurves: []
  m_CompressedRotationCurves: []
  m_EulerCurves: []
  m_PositionCurves: []
  m_ScaleCurves: []
  m_FloatCurves: []
  m_PPtrCurves:
  - curve:
    - time: 0
      value: {fileID: -6351125103184291102, guid: 0e7f598994142c5448428237b38c3a15,
        type: 3}
    - time: 0.083333336
      value: {fileID: -7577507535284900756, guid: 0e7f598994142c5448428237b38c3a15,
        type: 3}
    - time: 0.16666667
      value: {fileID: 4312006083320832891, guid: 0e7f598994142c5448428237b38c3a15,
        type: 3}
    - time: 0.25
      value: {fileID: -2340698084693197162, guid: 0e7f598994142c5448428237b38c3a15,
        type: 3}
    - time: 0.33333334
      value: {fileID: 1417068329605036609, guid: 0e7f598994142c5448428237b38c3a15,
        type: 3}
    - time: 0.41666666
      value: {fileID: -1583418408727002929, guid: 0e7f598994142c5448428237b38c3a15,
        type: 3}
    - time: 0.5
      value: {fileID: 5346095106035912891, guid: 0e7f598994142c5448428237b38c3a15,
        type: 3}
    - time: 0.5833333
      value: {fileID: -7810607779898119153, guid: 0e7f598994142c5448428237b38c3a15,
        type: 3}
    - time: 0.6666667
      value: {fileID: -3066827951738050421, guid: 0e7f598994142c5448428237b38c3a15,
        type: 3}
    - time: 0.75
      value: {fileID: -740074956823453164, guid: 0e7f598994142c5448428237b38c3a15,
        type: 3}
    - time: 0.8333333
      value: {fileID: 5498997313512621742, guid: 0e7f598994142c5448428237b38c3a15,
        type: 3}
    - time: 0.9166667
      value: {fileID: -2340698084693197162, guid: 0e7f598994142c5448428237b38c3a15,
        type: 3}
    - time: 1
      value: {fileID: 4312006083320832891, guid: 0e7f598994142c5448428237b38c3a15,
        type: 3}
    - time: 1.0833334
      value: {fileID: -7577507535284900756, guid: 0e7f598994142c5448428237b38c3a15,
        type: 3}
    attribute: m_Sprite
    path: 
    classID: 212
    script: {fileID: 0}
  m_SampleRate: 12
  m_WrapMode: 0
  m_Bounds:
    m_Center: {x: 0, y: 0, z: 0}
    m_Extent: {x: 0, y: 0, z: 0}
  m_ClipBindingConstant:
    genericBindings:
    - serializedVersion: 2
      path: 0
      attribute: 0
      script: {fileID: 0}
      typeID: 212
      customType: 23
      isPPtrCurve: 1
    pptrCurveMapping:
    - {fileID: -6351125103184291102, guid: 0e7f598994142c5448428237b38c3a15, type: 3}
    - {fileID: -7577507535284900756, guid: 0e7f598994142c5448428237b38c3a15, type: 3}
    - {fileID: 4312006083320832891, guid: 0e7f598994142c5448428237b38c3a15, type: 3}
    - {fileID: -2340698084693197162, guid: 0e7f598994142c5448428237b38c3a15, type: 3}
    - {fileID: 1417068329605036609, guid: 0e7f598994142c5448428237b38c3a15, type: 3}
    - {fileID: -1583418408727002929, guid: 0e7f598994142c5448428237b38c3a15, type: 3}
    - {fileID: 5346095106035912891, guid: 0e7f598994142c5448428237b38c3a15, type: 3}
    - {fileID: -7810607779898119153, guid: 0e7f598994142c5448428237b38c3a15, type: 3}
    - {fileID: -3066827951738050421, guid: 0e7f598994142c5448428237b38c3a15, type: 3}
    - {fileID: -740074956823453164, guid: 0e7f598994142c5448428237b38c3a15, type: 3}
    - {fileID: 5498997313512621742, guid: 0e7f598994142c5448428237b38c3a15, type: 3}
    - {fileID: -2340698084693197162, guid: 0e7f598994142c5448428237b38c3a15, type: 3}
    - {fileID: 4312006083320832891, guid: 0e7f598994142c5448428237b38c3a15, type: 3}
    - {fileID: -7577507535284900756, guid: 0e7f598994142c5448428237b38c3a15, type: 3}
  m_AnimationClipSettings:
    serializedVersion: 2
    m_AdditiveReferencePoseClip: {fileID: 0}
    m_AdditiveReferencePoseTime: 0
    m_StartTime: 0
    m_StopTime: 1.1666667
    m_OrientationOffsetY: 0
    m_Level: 0
    m_CycleOffset: 0
    m_HasAdditiveReferencePose: 0
    m_LoopTime: 0
    m_LoopBlend: 0
    m_LoopBlendOrientation: 0
    m_LoopBlendPositionY: 0
    m_LoopBlendPositionXZ: 0
    m_KeepOriginalOrientation: 0
    m_KeepOriginalPositionY: 1
    m_KeepOriginalPositionXZ: 0
    m_HeightFromFeet: 0
    m_Mirror: 0
  m_EditorCurves: []
  m_EulerEditorCurves: []
  m_HasGenericRootTransform: 0
  m_HasMotionFloatCurves: 0
  m_Events:
  - time: 0.6666667
    functionName: Attack
    data: 
    objectReferenceParameter: {fileID: 0}
    floatParameter: 0
    intParameter: 0
    messageOptions: 0
