%YAML 1.1
%TAG !u! tag:unity3d.com,2011:
--- !u!74 &7400000
AnimationClip:
  m_ObjectHideFlags: 0
  m_CorrespondingSourceObject: {fileID: 0}
  m_PrefabInstance: {fileID: 0}
  m_PrefabAsset: {fileID: 0}
  m_Name: Attack East
  serializedVersion: 6
  m_Legacy: 0
  m_Compressed: 0
  m_UseHighQualityCurve: 1
  m_RotationCurves: []
  m_CompressedRotationCurves: []
  m_EulerCurves: []
  m_PositionCurves: []
  m_ScaleCurves: []
  m_FloatCurves: []
  m_PPtrCurves:
  - curve:
    - time: 0
      value: {fileID: -5904405981860524325, guid: ecbc8bd202c1be14d9957fa4425aac98,
        type: 3}
    - time: 0.083333336
      value: {fileID: 5375110078439807207, guid: ecbc8bd202c1be14d9957fa4425aac98,
        type: 3}
    - time: 0.16666667
      value: {fileID: 3202582065453883245, guid: ecbc8bd202c1be14d9957fa4425aac98,
        type: 3}
    - time: 0.25
      value: {fileID: -4609205199218561963, guid: ecbc8bd202c1be14d9957fa4425aac98,
        type: 3}
    - time: 0.33333334
      value: {fileID: 89970250768590207, guid: ecbc8bd202c1be14d9957fa4425aac98, type: 3}
    - time: 0.41666666
      value: {fileID: -6290290410333359862, guid: ecbc8bd202c1be14d9957fa4425aac98,
        type: 3}
    - time: 0.5
      value: {fileID: -8881931519116477068, guid: ecbc8bd202c1be14d9957fa4425aac98,
        type: 3}
    - time: 0.5833333
      value: {fileID: -3279644026553322898, guid: ecbc8bd202c1be14d9957fa4425aac98,
        type: 3}
    - time: 0.6666667
      value: {fileID: 6042588736930415542, guid: ecbc8bd202c1be14d9957fa4425aac98,
        type: 3}
    - time: 0.75
      value: {fileID: -4304091391656955470, guid: ecbc8bd202c1be14d9957fa4425aac98,
        type: 3}
    - time: 0.8333333
      value: {fileID: 6032637382363798551, guid: ecbc8bd202c1be14d9957fa4425aac98,
        type: 3}
    - time: 0.9166667
      value: {fileID: 8351057837181157210, guid: ecbc8bd202c1be14d9957fa4425aac98,
        type: 3}
    - time: 1
      value: {fileID: -8357051362172871032, guid: ecbc8bd202c1be14d9957fa4425aac98,
        type: 3}
    - time: 1.0833334
      value: {fileID: -5716040992274768228, guid: ecbc8bd202c1be14d9957fa4425aac98,
        type: 3}
    attribute: m_Sprite
    path: 
    classID: 212
    script: {fileID: 0}
  m_SampleRate: 12
  m_WrapMode: 0
  m_Bounds:
    m_Center: {x: 0, y: 0, z: 0}
    m_Extent: {x: 0, y: 0, z: 0}
  m_ClipBindingConstant:
    genericBindings:
    - serializedVersion: 2
      path: 0
      attribute: 0
      script: {fileID: 0}
      typeID: 212
      customType: 23
      isPPtrCurve: 1
    pptrCurveMapping:
    - {fileID: -5904405981860524325, guid: ecbc8bd202c1be14d9957fa4425aac98, type: 3}
    - {fileID: 5375110078439807207, guid: ecbc8bd202c1be14d9957fa4425aac98, type: 3}
    - {fileID: 3202582065453883245, guid: ecbc8bd202c1be14d9957fa4425aac98, type: 3}
    - {fileID: -4609205199218561963, guid: ecbc8bd202c1be14d9957fa4425aac98, type: 3}
    - {fileID: 89970250768590207, guid: ecbc8bd202c1be14d9957fa4425aac98, type: 3}
    - {fileID: -6290290410333359862, guid: ecbc8bd202c1be14d9957fa4425aac98, type: 3}
    - {fileID: -8881931519116477068, guid: ecbc8bd202c1be14d9957fa4425aac98, type: 3}
    - {fileID: -3279644026553322898, guid: ecbc8bd202c1be14d9957fa4425aac98, type: 3}
    - {fileID: 6042588736930415542, guid: ecbc8bd202c1be14d9957fa4425aac98, type: 3}
    - {fileID: -4304091391656955470, guid: ecbc8bd202c1be14d9957fa4425aac98, type: 3}
    - {fileID: 6032637382363798551, guid: ecbc8bd202c1be14d9957fa4425aac98, type: 3}
    - {fileID: 8351057837181157210, guid: ecbc8bd202c1be14d9957fa4425aac98, type: 3}
    - {fileID: -8357051362172871032, guid: ecbc8bd202c1be14d9957fa4425aac98, type: 3}
    - {fileID: -5716040992274768228, guid: ecbc8bd202c1be14d9957fa4425aac98, type: 3}
  m_AnimationClipSettings:
    serializedVersion: 2
    m_AdditiveReferencePoseClip: {fileID: 0}
    m_AdditiveReferencePoseTime: 0
    m_StartTime: 0
    m_StopTime: 1.1666667
    m_OrientationOffsetY: 0
    m_Level: 0
    m_CycleOffset: 0
    m_HasAdditiveReferencePose: 0
    m_LoopTime: 0
    m_LoopBlend: 0
    m_LoopBlendOrientation: 0
    m_LoopBlendPositionY: 0
    m_LoopBlendPositionXZ: 0
    m_KeepOriginalOrientation: 0
    m_KeepOriginalPositionY: 1
    m_KeepOriginalPositionXZ: 0
    m_HeightFromFeet: 0
    m_Mirror: 0
  m_EditorCurves: []
  m_EulerEditorCurves: []
  m_HasGenericRootTransform: 0
  m_HasMotionFloatCurves: 0
  m_Events:
  - time: 0.6666667
    functionName: Death
    data: 
    objectReferenceParameter: {fileID: 0}
    floatParameter: 0
    intParameter: 0
    messageOptions: 0
