%YAML 1.1
%TAG !u! tag:unity3d.com,2011:
--- !u!1045 &1
EditorBuildSettings:
  m_ObjectHideFlags: 0
  serializedVersion: 2
  m_Scenes:
  - enabled: 1
    path: Assets/Online/Scenes/Opening.unity
    guid: cb758d129635bfa4b80ef9742b5fdc25
  - enabled: 1
    path: Assets/Online/Scenes/Cinematic.unity
    guid: 8e273b8168566f44d90e2b267e6377cb
  - enabled: 1
    path: Assets/Online/Scenes/Lobby.unity
    guid: c6ba5f11e68a24f9ea7cd952fbb08620
  - enabled: 1
    path: Assets/Online/Scenes/Match.unity
    guid: 850e1004018274c0fba7d259ec7f63e7
  - enabled: 1
    path: Assets/Online/Scenes/Tutorial.unity
    guid: e1b7c85b84c2643d087bc38fcd44c46a
  m_configObjects: {}
