%YAML 1.1
%TAG !u! tag:unity3d.com,2011:
--- !u!74 &7400000
AnimationClip:
  m_ObjectHideFlags: 0
  m_CorrespondingSourceObject: {fileID: 0}
  m_PrefabInstance: {fileID: 0}
  m_PrefabAsset: {fileID: 0}
  m_Name: WormStart
  serializedVersion: 6
  m_Legacy: 0
  m_Compressed: 0
  m_UseHighQualityCurve: 1
  m_RotationCurves: []
  m_CompressedRotationCurves: []
  m_EulerCurves: []
  m_PositionCurves: []
  m_ScaleCurves: []
  m_FloatCurves: []
  m_PPtrCurves:
  - curve:
    - time: 0
      value: {fileID: 6229487555271190283, guid: 31b1c6ff8a7334b469ca72ffe588c1b6,
        type: 3}
    - time: 0.083333336
      value: {fileID: 596253290723015203, guid: 31b1c6ff8a7334b469ca72ffe588c1b6,
        type: 3}
    - time: 0.16666667
      value: {fileID: 7461760128204933088, guid: 31b1c6ff8a7334b469ca72ffe588c1b6,
        type: 3}
    - time: 0.25
      value: {fileID: 2442768460281500533, guid: 31b1c6ff8a7334b469ca72ffe588c1b6,
        type: 3}
    - time: 0.33333334
      value: {fileID: 561197497175457239, guid: 31b1c6ff8a7334b469ca72ffe588c1b6,
        type: 3}
    - time: 0.41666666
      value: {fileID: -6247507271092984731, guid: 31b1c6ff8a7334b469ca72ffe588c1b6,
        type: 3}
    - time: 0.5
      value: {fileID: -5078379340915902407, guid: 31b1c6ff8a7334b469ca72ffe588c1b6,
        type: 3}
    - time: 0.5833333
      value: {fileID: 1986318808361458015, guid: fe7aacb704017ab47b80b65ed1897fda,
        type: 3}
    - time: 0.6666667
      value: {fileID: -8891483361889316204, guid: fe7aacb704017ab47b80b65ed1897fda,
        type: 3}
    - time: 0.75
      value: {fileID: 4958987892362688480, guid: fe7aacb704017ab47b80b65ed1897fda,
        type: 3}
    - time: 0.8333333
      value: {fileID: 1968152691446661766, guid: fe7aacb704017ab47b80b65ed1897fda,
        type: 3}
    - time: 0.9166667
      value: {fileID: -1967778866355954853, guid: fe7aacb704017ab47b80b65ed1897fda,
        type: 3}
    - time: 1
      value: {fileID: -8843280105054367808, guid: fe7aacb704017ab47b80b65ed1897fda,
        type: 3}
    - time: 1.0833334
      value: {fileID: 7855100487028717990, guid: fe7aacb704017ab47b80b65ed1897fda,
        type: 3}
    - time: 1.1666666
      value: {fileID: -1811373253383571958, guid: fe7aacb704017ab47b80b65ed1897fda,
        type: 3}
    attribute: m_Sprite
    path: 
    classID: 212
    script: {fileID: 0}
  m_SampleRate: 12
  m_WrapMode: 0
  m_Bounds:
    m_Center: {x: 0, y: 0, z: 0}
    m_Extent: {x: 0, y: 0, z: 0}
  m_ClipBindingConstant:
    genericBindings:
    - serializedVersion: 2
      path: 0
      attribute: 0
      script: {fileID: 0}
      typeID: 212
      customType: 23
      isPPtrCurve: 1
    pptrCurveMapping:
    - {fileID: 6229487555271190283, guid: 31b1c6ff8a7334b469ca72ffe588c1b6, type: 3}
    - {fileID: 596253290723015203, guid: 31b1c6ff8a7334b469ca72ffe588c1b6, type: 3}
    - {fileID: 7461760128204933088, guid: 31b1c6ff8a7334b469ca72ffe588c1b6, type: 3}
    - {fileID: 2442768460281500533, guid: 31b1c6ff8a7334b469ca72ffe588c1b6, type: 3}
    - {fileID: 561197497175457239, guid: 31b1c6ff8a7334b469ca72ffe588c1b6, type: 3}
    - {fileID: -6247507271092984731, guid: 31b1c6ff8a7334b469ca72ffe588c1b6, type: 3}
    - {fileID: -5078379340915902407, guid: 31b1c6ff8a7334b469ca72ffe588c1b6, type: 3}
    - {fileID: 1986318808361458015, guid: fe7aacb704017ab47b80b65ed1897fda, type: 3}
    - {fileID: -8891483361889316204, guid: fe7aacb704017ab47b80b65ed1897fda, type: 3}
    - {fileID: 4958987892362688480, guid: fe7aacb704017ab47b80b65ed1897fda, type: 3}
    - {fileID: 1968152691446661766, guid: fe7aacb704017ab47b80b65ed1897fda, type: 3}
    - {fileID: -1967778866355954853, guid: fe7aacb704017ab47b80b65ed1897fda, type: 3}
    - {fileID: -8843280105054367808, guid: fe7aacb704017ab47b80b65ed1897fda, type: 3}
    - {fileID: 7855100487028717990, guid: fe7aacb704017ab47b80b65ed1897fda, type: 3}
    - {fileID: -1811373253383571958, guid: fe7aacb704017ab47b80b65ed1897fda, type: 3}
  m_AnimationClipSettings:
    serializedVersion: 2
    m_AdditiveReferencePoseClip: {fileID: 0}
    m_AdditiveReferencePoseTime: 0
    m_StartTime: 0
    m_StopTime: 1.25
    m_OrientationOffsetY: 0
    m_Level: 0
    m_CycleOffset: 0
    m_HasAdditiveReferencePose: 0
    m_LoopTime: 1
    m_LoopBlend: 0
    m_LoopBlendOrientation: 0
    m_LoopBlendPositionY: 0
    m_LoopBlendPositionXZ: 0
    m_KeepOriginalOrientation: 0
    m_KeepOriginalPositionY: 1
    m_KeepOriginalPositionXZ: 0
    m_HeightFromFeet: 0
    m_Mirror: 0
  m_EditorCurves: []
  m_EulerEditorCurves: []
  m_HasGenericRootTransform: 0
  m_HasMotionFloatCurves: 0
  m_Events: []
