%YAML 1.1
%TAG !u! tag:unity3d.com,2011:
--- !u!74 &7400000
AnimationClip:
  m_ObjectHideFlags: 0
  m_CorrespondingSourceObject: {fileID: 0}
  m_PrefabInstance: {fileID: 0}
  m_PrefabAsset: {fileID: 0}
  m_Name: babosa
  serializedVersion: 6
  m_Legacy: 0
  m_Compressed: 0
  m_UseHighQualityCurve: 1
  m_RotationCurves: []
  m_CompressedRotationCurves: []
  m_EulerCurves:
  - curve:
      serializedVersion: 2
      m_Curve:
      - serializedVersion: 3
        time: 0
        value: {x: 0, y: 0, z: 0}
        inSlope: {x: 0, y: 0, z: 0}
        outSlope: {x: 0, y: 0, z: 0}
        tangentMode: 0
        weightedMode: 0
        inWeight: {x: 0.33333334, y: 0.33333334, z: 0.33333334}
        outWeight: {x: 0.33333334, y: 0.33333334, z: 0.33333334}
      - serializedVersion: 3
        time: 5
        value: {x: 0, y: 0, z: 0}
        inSlope: {x: 0, y: 0, z: 0}
        outSlope: {x: 0, y: 0, z: 0}
        tangentMode: 0
        weightedMode: 0
        inWeight: {x: 0.33333334, y: 0.33333334, z: 0.33333334}
        outWeight: {x: 0.33333334, y: 0.33333334, z: 0.33333334}
      - serializedVersion: 3
        time: 5.0666666
        value: {x: 0, y: 180, z: 0}
        inSlope: {x: 0, y: 0, z: 0}
        outSlope: {x: 0, y: 0, z: 0}
        tangentMode: 0
        weightedMode: 0
        inWeight: {x: 0.33333334, y: 0.33333334, z: 0.33333334}
        outWeight: {x: 0.33333334, y: 0.33333334, z: 0.33333334}
      m_PreInfinity: 2
      m_PostInfinity: 2
      m_RotationOrder: 4
    path: 
  m_PositionCurves: []
  m_ScaleCurves: []
  m_FloatCurves:
  - curve:
      serializedVersion: 2
      m_Curve:
      - serializedVersion: 3
        time: 0
        value: -385
        inSlope: 0
        outSlope: 0
        tangentMode: 136
        weightedMode: 0
        inWeight: 0.33333334
        outWeight: 0.33333334
      m_PreInfinity: 2
      m_PostInfinity: 2
      m_RotationOrder: 4
    attribute: m_AnchoredPosition.y
    path: 
    classID: 224
    script: {fileID: 0}
  - curve:
      serializedVersion: 2
      m_Curve:
      - serializedVersion: 3
        time: 0
        value: 1011
        inSlope: 0
        outSlope: 0
        tangentMode: 136
        weightedMode: 0
        inWeight: 0.33333334
        outWeight: 0.33333334
      - serializedVersion: 3
        time: 5
        value: -1062
        inSlope: 0
        outSlope: 0
        tangentMode: 136
        weightedMode: 0
        inWeight: 0.33333334
        outWeight: 0.33333334
      - serializedVersion: 3
        time: 9.916667
        value: 1122
        inSlope: 0
        outSlope: 0
        tangentMode: 136
        weightedMode: 0
        inWeight: 0.33333334
        outWeight: 0.33333334
      m_PreInfinity: 2
      m_PostInfinity: 2
      m_RotationOrder: 4
    attribute: m_AnchoredPosition.x
    path: 
    classID: 224
    script: {fileID: 0}
  m_PPtrCurves:
  - curve:
    - time: 0.083333336
      value: {fileID: -7857071600689890512, guid: dce535271c99bd94997e48e3110f1216,
        type: 3}
    - time: 0.16666667
      value: {fileID: -9106839193909220943, guid: dce535271c99bd94997e48e3110f1216,
        type: 3}
    - time: 0.25
      value: {fileID: -2265524061291496743, guid: dce535271c99bd94997e48e3110f1216,
        type: 3}
    - time: 0.33333334
      value: {fileID: -620328039555282888, guid: dce535271c99bd94997e48e3110f1216,
        type: 3}
    - time: 0.41666666
      value: {fileID: -9163845432942876144, guid: dce535271c99bd94997e48e3110f1216,
        type: 3}
    - time: 0.5
      value: {fileID: 274105561321471017, guid: dce535271c99bd94997e48e3110f1216,
        type: 3}
    - time: 0.5833333
      value: {fileID: -7857071600689890512, guid: dce535271c99bd94997e48e3110f1216,
        type: 3}
    - time: 0.6666667
      value: {fileID: -9106839193909220943, guid: dce535271c99bd94997e48e3110f1216,
        type: 3}
    - time: 0.75
      value: {fileID: -2265524061291496743, guid: dce535271c99bd94997e48e3110f1216,
        type: 3}
    - time: 0.8333333
      value: {fileID: -620328039555282888, guid: dce535271c99bd94997e48e3110f1216,
        type: 3}
    - time: 0.9166667
      value: {fileID: -9163845432942876144, guid: dce535271c99bd94997e48e3110f1216,
        type: 3}
    - time: 1
      value: {fileID: 274105561321471017, guid: dce535271c99bd94997e48e3110f1216,
        type: 3}
    - time: 1.0833334
      value: {fileID: -2421984855886611130, guid: dce535271c99bd94997e48e3110f1216,
        type: 3}
    - time: 1.1666666
      value: {fileID: 4878197502388672006, guid: dce535271c99bd94997e48e3110f1216,
        type: 3}
    - time: 1.25
      value: {fileID: -7857071600689890512, guid: dce535271c99bd94997e48e3110f1216,
        type: 3}
    - time: 1.3333334
      value: {fileID: -7857071600689890512, guid: dce535271c99bd94997e48e3110f1216,
        type: 3}
    - time: 1.4166666
      value: {fileID: -9106839193909220943, guid: dce535271c99bd94997e48e3110f1216,
        type: 3}
    - time: 1.5
      value: {fileID: -2265524061291496743, guid: dce535271c99bd94997e48e3110f1216,
        type: 3}
    - time: 1.5833334
      value: {fileID: -620328039555282888, guid: dce535271c99bd94997e48e3110f1216,
        type: 3}
    - time: 1.6666666
      value: {fileID: -9163845432942876144, guid: dce535271c99bd94997e48e3110f1216,
        type: 3}
    - time: 1.75
      value: {fileID: 274105561321471017, guid: dce535271c99bd94997e48e3110f1216,
        type: 3}
    - time: 1.8333334
      value: {fileID: -7857071600689890512, guid: dce535271c99bd94997e48e3110f1216,
        type: 3}
    - time: 1.9166666
      value: {fileID: -9106839193909220943, guid: dce535271c99bd94997e48e3110f1216,
        type: 3}
    - time: 2
      value: {fileID: -2265524061291496743, guid: dce535271c99bd94997e48e3110f1216,
        type: 3}
    - time: 2.0833333
      value: {fileID: -620328039555282888, guid: dce535271c99bd94997e48e3110f1216,
        type: 3}
    - time: 2.1666667
      value: {fileID: -9163845432942876144, guid: dce535271c99bd94997e48e3110f1216,
        type: 3}
    - time: 2.25
      value: {fileID: 274105561321471017, guid: dce535271c99bd94997e48e3110f1216,
        type: 3}
    - time: 2.3333333
      value: {fileID: -2421984855886611130, guid: dce535271c99bd94997e48e3110f1216,
        type: 3}
    - time: 2.4166667
      value: {fileID: 4878197502388672006, guid: dce535271c99bd94997e48e3110f1216,
        type: 3}
    - time: 2.5
      value: {fileID: -7857071600689890512, guid: dce535271c99bd94997e48e3110f1216,
        type: 3}
    - time: 2.5833333
      value: {fileID: -9106839193909220943, guid: dce535271c99bd94997e48e3110f1216,
        type: 3}
    - time: 2.6666667
      value: {fileID: -2265524061291496743, guid: dce535271c99bd94997e48e3110f1216,
        type: 3}
    - time: 2.75
      value: {fileID: -620328039555282888, guid: dce535271c99bd94997e48e3110f1216,
        type: 3}
    - time: 2.8333333
      value: {fileID: -9163845432942876144, guid: dce535271c99bd94997e48e3110f1216,
        type: 3}
    - time: 2.9166667
      value: {fileID: 274105561321471017, guid: dce535271c99bd94997e48e3110f1216,
        type: 3}
    - time: 3
      value: {fileID: -7857071600689890512, guid: dce535271c99bd94997e48e3110f1216,
        type: 3}
    - time: 3.0833333
      value: {fileID: -9106839193909220943, guid: dce535271c99bd94997e48e3110f1216,
        type: 3}
    - time: 3.1666667
      value: {fileID: -2265524061291496743, guid: dce535271c99bd94997e48e3110f1216,
        type: 3}
    - time: 3.25
      value: {fileID: -620328039555282888, guid: dce535271c99bd94997e48e3110f1216,
        type: 3}
    - time: 3.3333333
      value: {fileID: -9163845432942876144, guid: dce535271c99bd94997e48e3110f1216,
        type: 3}
    - time: 3.4166667
      value: {fileID: 274105561321471017, guid: dce535271c99bd94997e48e3110f1216,
        type: 3}
    - time: 3.5
      value: {fileID: -2421984855886611130, guid: dce535271c99bd94997e48e3110f1216,
        type: 3}
    - time: 3.5833333
      value: {fileID: 4878197502388672006, guid: dce535271c99bd94997e48e3110f1216,
        type: 3}
    - time: 3.6666667
      value: {fileID: -7857071600689890512, guid: dce535271c99bd94997e48e3110f1216,
        type: 3}
    - time: 3.75
      value: {fileID: -7857071600689890512, guid: dce535271c99bd94997e48e3110f1216,
        type: 3}
    - time: 3.8333333
      value: {fileID: -9106839193909220943, guid: dce535271c99bd94997e48e3110f1216,
        type: 3}
    - time: 3.9166667
      value: {fileID: -2265524061291496743, guid: dce535271c99bd94997e48e3110f1216,
        type: 3}
    - time: 4
      value: {fileID: -620328039555282888, guid: dce535271c99bd94997e48e3110f1216,
        type: 3}
    - time: 4.0833335
      value: {fileID: -9163845432942876144, guid: dce535271c99bd94997e48e3110f1216,
        type: 3}
    - time: 4.1666665
      value: {fileID: 274105561321471017, guid: dce535271c99bd94997e48e3110f1216,
        type: 3}
    - time: 4.25
      value: {fileID: -7857071600689890512, guid: dce535271c99bd94997e48e3110f1216,
        type: 3}
    - time: 4.3333335
      value: {fileID: -9106839193909220943, guid: dce535271c99bd94997e48e3110f1216,
        type: 3}
    - time: 4.4166665
      value: {fileID: -2265524061291496743, guid: dce535271c99bd94997e48e3110f1216,
        type: 3}
    - time: 4.5
      value: {fileID: -620328039555282888, guid: dce535271c99bd94997e48e3110f1216,
        type: 3}
    - time: 4.5833335
      value: {fileID: -9163845432942876144, guid: dce535271c99bd94997e48e3110f1216,
        type: 3}
    - time: 4.6666665
      value: {fileID: 274105561321471017, guid: dce535271c99bd94997e48e3110f1216,
        type: 3}
    - time: 4.75
      value: {fileID: -2421984855886611130, guid: dce535271c99bd94997e48e3110f1216,
        type: 3}
    - time: 4.8333335
      value: {fileID: 4878197502388672006, guid: dce535271c99bd94997e48e3110f1216,
        type: 3}
    - time: 4.9166665
      value: {fileID: -7857071600689890512, guid: dce535271c99bd94997e48e3110f1216,
        type: 3}
    - time: 5.0666666
      value: {fileID: -7857071600689890512, guid: dce535271c99bd94997e48e3110f1216,
        type: 3}
    - time: 5.15
      value: {fileID: -9106839193909220943, guid: dce535271c99bd94997e48e3110f1216,
        type: 3}
    - time: 5.233333
      value: {fileID: -2265524061291496743, guid: dce535271c99bd94997e48e3110f1216,
        type: 3}
    - time: 5.3166666
      value: {fileID: -620328039555282888, guid: dce535271c99bd94997e48e3110f1216,
        type: 3}
    - time: 5.4
      value: {fileID: -9163845432942876144, guid: dce535271c99bd94997e48e3110f1216,
        type: 3}
    - time: 5.483333
      value: {fileID: 274105561321471017, guid: dce535271c99bd94997e48e3110f1216,
        type: 3}
    - time: 5.5666666
      value: {fileID: -7857071600689890512, guid: dce535271c99bd94997e48e3110f1216,
        type: 3}
    - time: 5.65
      value: {fileID: -9106839193909220943, guid: dce535271c99bd94997e48e3110f1216,
        type: 3}
    - time: 5.733333
      value: {fileID: -2265524061291496743, guid: dce535271c99bd94997e48e3110f1216,
        type: 3}
    - time: 5.8166666
      value: {fileID: -620328039555282888, guid: dce535271c99bd94997e48e3110f1216,
        type: 3}
    - time: 5.9
      value: {fileID: -9163845432942876144, guid: dce535271c99bd94997e48e3110f1216,
        type: 3}
    - time: 5.983333
      value: {fileID: 274105561321471017, guid: dce535271c99bd94997e48e3110f1216,
        type: 3}
    - time: 6.0666666
      value: {fileID: -2421984855886611130, guid: dce535271c99bd94997e48e3110f1216,
        type: 3}
    - time: 6.15
      value: {fileID: 4878197502388672006, guid: dce535271c99bd94997e48e3110f1216,
        type: 3}
    - time: 6.233333
      value: {fileID: -7857071600689890512, guid: dce535271c99bd94997e48e3110f1216,
        type: 3}
    - time: 6.3166666
      value: {fileID: -7857071600689890512, guid: dce535271c99bd94997e48e3110f1216,
        type: 3}
    - time: 6.4
      value: {fileID: -9106839193909220943, guid: dce535271c99bd94997e48e3110f1216,
        type: 3}
    - time: 6.483333
      value: {fileID: -2265524061291496743, guid: dce535271c99bd94997e48e3110f1216,
        type: 3}
    - time: 6.5666666
      value: {fileID: -620328039555282888, guid: dce535271c99bd94997e48e3110f1216,
        type: 3}
    - time: 6.65
      value: {fileID: -9163845432942876144, guid: dce535271c99bd94997e48e3110f1216,
        type: 3}
    - time: 6.733333
      value: {fileID: 274105561321471017, guid: dce535271c99bd94997e48e3110f1216,
        type: 3}
    - time: 6.8166666
      value: {fileID: -7857071600689890512, guid: dce535271c99bd94997e48e3110f1216,
        type: 3}
    - time: 6.9
      value: {fileID: -9106839193909220943, guid: dce535271c99bd94997e48e3110f1216,
        type: 3}
    - time: 6.983333
      value: {fileID: -2265524061291496743, guid: dce535271c99bd94997e48e3110f1216,
        type: 3}
    - time: 7.0666666
      value: {fileID: -620328039555282888, guid: dce535271c99bd94997e48e3110f1216,
        type: 3}
    - time: 7.15
      value: {fileID: -9163845432942876144, guid: dce535271c99bd94997e48e3110f1216,
        type: 3}
    - time: 7.233333
      value: {fileID: 274105561321471017, guid: dce535271c99bd94997e48e3110f1216,
        type: 3}
    - time: 7.3166666
      value: {fileID: -2421984855886611130, guid: dce535271c99bd94997e48e3110f1216,
        type: 3}
    - time: 7.4
      value: {fileID: 4878197502388672006, guid: dce535271c99bd94997e48e3110f1216,
        type: 3}
    - time: 7.483333
      value: {fileID: -7857071600689890512, guid: dce535271c99bd94997e48e3110f1216,
        type: 3}
    - time: 7.5666666
      value: {fileID: -9106839193909220943, guid: dce535271c99bd94997e48e3110f1216,
        type: 3}
    - time: 7.65
      value: {fileID: -2265524061291496743, guid: dce535271c99bd94997e48e3110f1216,
        type: 3}
    - time: 7.733333
      value: {fileID: -620328039555282888, guid: dce535271c99bd94997e48e3110f1216,
        type: 3}
    - time: 7.8166666
      value: {fileID: -9163845432942876144, guid: dce535271c99bd94997e48e3110f1216,
        type: 3}
    - time: 7.9
      value: {fileID: 274105561321471017, guid: dce535271c99bd94997e48e3110f1216,
        type: 3}
    - time: 7.983333
      value: {fileID: -7857071600689890512, guid: dce535271c99bd94997e48e3110f1216,
        type: 3}
    - time: 8.066667
      value: {fileID: -9106839193909220943, guid: dce535271c99bd94997e48e3110f1216,
        type: 3}
    - time: 8.15
      value: {fileID: -2265524061291496743, guid: dce535271c99bd94997e48e3110f1216,
        type: 3}
    - time: 8.233334
      value: {fileID: -620328039555282888, guid: dce535271c99bd94997e48e3110f1216,
        type: 3}
    - time: 8.316667
      value: {fileID: -9163845432942876144, guid: dce535271c99bd94997e48e3110f1216,
        type: 3}
    - time: 8.4
      value: {fileID: 274105561321471017, guid: dce535271c99bd94997e48e3110f1216,
        type: 3}
    - time: 8.483334
      value: {fileID: -2421984855886611130, guid: dce535271c99bd94997e48e3110f1216,
        type: 3}
    - time: 8.566667
      value: {fileID: 4878197502388672006, guid: dce535271c99bd94997e48e3110f1216,
        type: 3}
    - time: 8.65
      value: {fileID: -7857071600689890512, guid: dce535271c99bd94997e48e3110f1216,
        type: 3}
    - time: 8.733334
      value: {fileID: -7857071600689890512, guid: dce535271c99bd94997e48e3110f1216,
        type: 3}
    - time: 8.816667
      value: {fileID: -9106839193909220943, guid: dce535271c99bd94997e48e3110f1216,
        type: 3}
    - time: 8.9
      value: {fileID: -2265524061291496743, guid: dce535271c99bd94997e48e3110f1216,
        type: 3}
    - time: 8.983334
      value: {fileID: -620328039555282888, guid: dce535271c99bd94997e48e3110f1216,
        type: 3}
    - time: 9.066667
      value: {fileID: -9163845432942876144, guid: dce535271c99bd94997e48e3110f1216,
        type: 3}
    - time: 9.15
      value: {fileID: 274105561321471017, guid: dce535271c99bd94997e48e3110f1216,
        type: 3}
    - time: 9.233334
      value: {fileID: -7857071600689890512, guid: dce535271c99bd94997e48e3110f1216,
        type: 3}
    - time: 9.316667
      value: {fileID: -9106839193909220943, guid: dce535271c99bd94997e48e3110f1216,
        type: 3}
    - time: 9.4
      value: {fileID: -2265524061291496743, guid: dce535271c99bd94997e48e3110f1216,
        type: 3}
    - time: 9.483334
      value: {fileID: -620328039555282888, guid: dce535271c99bd94997e48e3110f1216,
        type: 3}
    - time: 9.566667
      value: {fileID: -9163845432942876144, guid: dce535271c99bd94997e48e3110f1216,
        type: 3}
    - time: 9.65
      value: {fileID: 274105561321471017, guid: dce535271c99bd94997e48e3110f1216,
        type: 3}
    - time: 9.733334
      value: {fileID: -2421984855886611130, guid: dce535271c99bd94997e48e3110f1216,
        type: 3}
    - time: 9.816667
      value: {fileID: 4878197502388672006, guid: dce535271c99bd94997e48e3110f1216,
        type: 3}
    - time: 9.9
      value: {fileID: -7857071600689890512, guid: dce535271c99bd94997e48e3110f1216,
        type: 3}
    attribute: m_Sprite
    path: 
    classID: 114
    script: {fileID: 11500000, guid: fe87c0e1cc204ed48ad3b37840f39efc, type: 3}
  m_SampleRate: 60
  m_WrapMode: 0
  m_Bounds:
    m_Center: {x: 0, y: 0, z: 0}
    m_Extent: {x: 0, y: 0, z: 0}
  m_ClipBindingConstant:
    genericBindings:
    - serializedVersion: 2
      path: 0
      attribute: 4
      script: {fileID: 0}
      typeID: 4
      customType: 4
      isPPtrCurve: 0
    - serializedVersion: 2
      path: 0
      attribute: 1460864421
      script: {fileID: 0}
      typeID: 224
      customType: 28
      isPPtrCurve: 0
    - serializedVersion: 2
      path: 0
      attribute: 2015549526
      script: {fileID: 11500000, guid: fe87c0e1cc204ed48ad3b37840f39efc, type: 3}
      typeID: 114
      customType: 0
      isPPtrCurve: 1
    - serializedVersion: 2
      path: 0
      attribute: 538195251
      script: {fileID: 0}
      typeID: 224
      customType: 28
      isPPtrCurve: 0
    pptrCurveMapping:
    - {fileID: -7857071600689890512, guid: dce535271c99bd94997e48e3110f1216, type: 3}
    - {fileID: -9106839193909220943, guid: dce535271c99bd94997e48e3110f1216, type: 3}
    - {fileID: -2265524061291496743, guid: dce535271c99bd94997e48e3110f1216, type: 3}
    - {fileID: -620328039555282888, guid: dce535271c99bd94997e48e3110f1216, type: 3}
    - {fileID: -9163845432942876144, guid: dce535271c99bd94997e48e3110f1216, type: 3}
    - {fileID: 274105561321471017, guid: dce535271c99bd94997e48e3110f1216, type: 3}
    - {fileID: -7857071600689890512, guid: dce535271c99bd94997e48e3110f1216, type: 3}
    - {fileID: -9106839193909220943, guid: dce535271c99bd94997e48e3110f1216, type: 3}
    - {fileID: -2265524061291496743, guid: dce535271c99bd94997e48e3110f1216, type: 3}
    - {fileID: -620328039555282888, guid: dce535271c99bd94997e48e3110f1216, type: 3}
    - {fileID: -9163845432942876144, guid: dce535271c99bd94997e48e3110f1216, type: 3}
    - {fileID: 274105561321471017, guid: dce535271c99bd94997e48e3110f1216, type: 3}
    - {fileID: -2421984855886611130, guid: dce535271c99bd94997e48e3110f1216, type: 3}
    - {fileID: 4878197502388672006, guid: dce535271c99bd94997e48e3110f1216, type: 3}
    - {fileID: -7857071600689890512, guid: dce535271c99bd94997e48e3110f1216, type: 3}
    - {fileID: -7857071600689890512, guid: dce535271c99bd94997e48e3110f1216, type: 3}
    - {fileID: -9106839193909220943, guid: dce535271c99bd94997e48e3110f1216, type: 3}
    - {fileID: -2265524061291496743, guid: dce535271c99bd94997e48e3110f1216, type: 3}
    - {fileID: -620328039555282888, guid: dce535271c99bd94997e48e3110f1216, type: 3}
    - {fileID: -9163845432942876144, guid: dce535271c99bd94997e48e3110f1216, type: 3}
    - {fileID: 274105561321471017, guid: dce535271c99bd94997e48e3110f1216, type: 3}
    - {fileID: -7857071600689890512, guid: dce535271c99bd94997e48e3110f1216, type: 3}
    - {fileID: -9106839193909220943, guid: dce535271c99bd94997e48e3110f1216, type: 3}
    - {fileID: -2265524061291496743, guid: dce535271c99bd94997e48e3110f1216, type: 3}
    - {fileID: -620328039555282888, guid: dce535271c99bd94997e48e3110f1216, type: 3}
    - {fileID: -9163845432942876144, guid: dce535271c99bd94997e48e3110f1216, type: 3}
    - {fileID: 274105561321471017, guid: dce535271c99bd94997e48e3110f1216, type: 3}
    - {fileID: -2421984855886611130, guid: dce535271c99bd94997e48e3110f1216, type: 3}
    - {fileID: 4878197502388672006, guid: dce535271c99bd94997e48e3110f1216, type: 3}
    - {fileID: -7857071600689890512, guid: dce535271c99bd94997e48e3110f1216, type: 3}
    - {fileID: -9106839193909220943, guid: dce535271c99bd94997e48e3110f1216, type: 3}
    - {fileID: -2265524061291496743, guid: dce535271c99bd94997e48e3110f1216, type: 3}
    - {fileID: -620328039555282888, guid: dce535271c99bd94997e48e3110f1216, type: 3}
    - {fileID: -9163845432942876144, guid: dce535271c99bd94997e48e3110f1216, type: 3}
    - {fileID: 274105561321471017, guid: dce535271c99bd94997e48e3110f1216, type: 3}
    - {fileID: -7857071600689890512, guid: dce535271c99bd94997e48e3110f1216, type: 3}
    - {fileID: -9106839193909220943, guid: dce535271c99bd94997e48e3110f1216, type: 3}
    - {fileID: -2265524061291496743, guid: dce535271c99bd94997e48e3110f1216, type: 3}
    - {fileID: -620328039555282888, guid: dce535271c99bd94997e48e3110f1216, type: 3}
    - {fileID: -9163845432942876144, guid: dce535271c99bd94997e48e3110f1216, type: 3}
    - {fileID: 274105561321471017, guid: dce535271c99bd94997e48e3110f1216, type: 3}
    - {fileID: -2421984855886611130, guid: dce535271c99bd94997e48e3110f1216, type: 3}
    - {fileID: 4878197502388672006, guid: dce535271c99bd94997e48e3110f1216, type: 3}
    - {fileID: -7857071600689890512, guid: dce535271c99bd94997e48e3110f1216, type: 3}
    - {fileID: -7857071600689890512, guid: dce535271c99bd94997e48e3110f1216, type: 3}
    - {fileID: -9106839193909220943, guid: dce535271c99bd94997e48e3110f1216, type: 3}
    - {fileID: -2265524061291496743, guid: dce535271c99bd94997e48e3110f1216, type: 3}
    - {fileID: -620328039555282888, guid: dce535271c99bd94997e48e3110f1216, type: 3}
    - {fileID: -9163845432942876144, guid: dce535271c99bd94997e48e3110f1216, type: 3}
    - {fileID: 274105561321471017, guid: dce535271c99bd94997e48e3110f1216, type: 3}
    - {fileID: -7857071600689890512, guid: dce535271c99bd94997e48e3110f1216, type: 3}
    - {fileID: -9106839193909220943, guid: dce535271c99bd94997e48e3110f1216, type: 3}
    - {fileID: -2265524061291496743, guid: dce535271c99bd94997e48e3110f1216, type: 3}
    - {fileID: -620328039555282888, guid: dce535271c99bd94997e48e3110f1216, type: 3}
    - {fileID: -9163845432942876144, guid: dce535271c99bd94997e48e3110f1216, type: 3}
    - {fileID: 274105561321471017, guid: dce535271c99bd94997e48e3110f1216, type: 3}
    - {fileID: -2421984855886611130, guid: dce535271c99bd94997e48e3110f1216, type: 3}
    - {fileID: 4878197502388672006, guid: dce535271c99bd94997e48e3110f1216, type: 3}
    - {fileID: -7857071600689890512, guid: dce535271c99bd94997e48e3110f1216, type: 3}
    - {fileID: -7857071600689890512, guid: dce535271c99bd94997e48e3110f1216, type: 3}
    - {fileID: -9106839193909220943, guid: dce535271c99bd94997e48e3110f1216, type: 3}
    - {fileID: -2265524061291496743, guid: dce535271c99bd94997e48e3110f1216, type: 3}
    - {fileID: -620328039555282888, guid: dce535271c99bd94997e48e3110f1216, type: 3}
    - {fileID: -9163845432942876144, guid: dce535271c99bd94997e48e3110f1216, type: 3}
    - {fileID: 274105561321471017, guid: dce535271c99bd94997e48e3110f1216, type: 3}
    - {fileID: -7857071600689890512, guid: dce535271c99bd94997e48e3110f1216, type: 3}
    - {fileID: -9106839193909220943, guid: dce535271c99bd94997e48e3110f1216, type: 3}
    - {fileID: -2265524061291496743, guid: dce535271c99bd94997e48e3110f1216, type: 3}
    - {fileID: -620328039555282888, guid: dce535271c99bd94997e48e3110f1216, type: 3}
    - {fileID: -9163845432942876144, guid: dce535271c99bd94997e48e3110f1216, type: 3}
    - {fileID: 274105561321471017, guid: dce535271c99bd94997e48e3110f1216, type: 3}
    - {fileID: -2421984855886611130, guid: dce535271c99bd94997e48e3110f1216, type: 3}
    - {fileID: 4878197502388672006, guid: dce535271c99bd94997e48e3110f1216, type: 3}
    - {fileID: -7857071600689890512, guid: dce535271c99bd94997e48e3110f1216, type: 3}
    - {fileID: -7857071600689890512, guid: dce535271c99bd94997e48e3110f1216, type: 3}
    - {fileID: -9106839193909220943, guid: dce535271c99bd94997e48e3110f1216, type: 3}
    - {fileID: -2265524061291496743, guid: dce535271c99bd94997e48e3110f1216, type: 3}
    - {fileID: -620328039555282888, guid: dce535271c99bd94997e48e3110f1216, type: 3}
    - {fileID: -9163845432942876144, guid: dce535271c99bd94997e48e3110f1216, type: 3}
    - {fileID: 274105561321471017, guid: dce535271c99bd94997e48e3110f1216, type: 3}
    - {fileID: -7857071600689890512, guid: dce535271c99bd94997e48e3110f1216, type: 3}
    - {fileID: -9106839193909220943, guid: dce535271c99bd94997e48e3110f1216, type: 3}
    - {fileID: -2265524061291496743, guid: dce535271c99bd94997e48e3110f1216, type: 3}
    - {fileID: -620328039555282888, guid: dce535271c99bd94997e48e3110f1216, type: 3}
    - {fileID: -9163845432942876144, guid: dce535271c99bd94997e48e3110f1216, type: 3}
    - {fileID: 274105561321471017, guid: dce535271c99bd94997e48e3110f1216, type: 3}
    - {fileID: -2421984855886611130, guid: dce535271c99bd94997e48e3110f1216, type: 3}
    - {fileID: 4878197502388672006, guid: dce535271c99bd94997e48e3110f1216, type: 3}
    - {fileID: -7857071600689890512, guid: dce535271c99bd94997e48e3110f1216, type: 3}
    - {fileID: -9106839193909220943, guid: dce535271c99bd94997e48e3110f1216, type: 3}
    - {fileID: -2265524061291496743, guid: dce535271c99bd94997e48e3110f1216, type: 3}
    - {fileID: -620328039555282888, guid: dce535271c99bd94997e48e3110f1216, type: 3}
    - {fileID: -9163845432942876144, guid: dce535271c99bd94997e48e3110f1216, type: 3}
    - {fileID: 274105561321471017, guid: dce535271c99bd94997e48e3110f1216, type: 3}
    - {fileID: -7857071600689890512, guid: dce535271c99bd94997e48e3110f1216, type: 3}
    - {fileID: -9106839193909220943, guid: dce535271c99bd94997e48e3110f1216, type: 3}
    - {fileID: -2265524061291496743, guid: dce535271c99bd94997e48e3110f1216, type: 3}
    - {fileID: -620328039555282888, guid: dce535271c99bd94997e48e3110f1216, type: 3}
    - {fileID: -9163845432942876144, guid: dce535271c99bd94997e48e3110f1216, type: 3}
    - {fileID: 274105561321471017, guid: dce535271c99bd94997e48e3110f1216, type: 3}
    - {fileID: -2421984855886611130, guid: dce535271c99bd94997e48e3110f1216, type: 3}
    - {fileID: 4878197502388672006, guid: dce535271c99bd94997e48e3110f1216, type: 3}
    - {fileID: -7857071600689890512, guid: dce535271c99bd94997e48e3110f1216, type: 3}
    - {fileID: -7857071600689890512, guid: dce535271c99bd94997e48e3110f1216, type: 3}
    - {fileID: -9106839193909220943, guid: dce535271c99bd94997e48e3110f1216, type: 3}
    - {fileID: -2265524061291496743, guid: dce535271c99bd94997e48e3110f1216, type: 3}
    - {fileID: -620328039555282888, guid: dce535271c99bd94997e48e3110f1216, type: 3}
    - {fileID: -9163845432942876144, guid: dce535271c99bd94997e48e3110f1216, type: 3}
    - {fileID: 274105561321471017, guid: dce535271c99bd94997e48e3110f1216, type: 3}
    - {fileID: -7857071600689890512, guid: dce535271c99bd94997e48e3110f1216, type: 3}
    - {fileID: -9106839193909220943, guid: dce535271c99bd94997e48e3110f1216, type: 3}
    - {fileID: -2265524061291496743, guid: dce535271c99bd94997e48e3110f1216, type: 3}
    - {fileID: -620328039555282888, guid: dce535271c99bd94997e48e3110f1216, type: 3}
    - {fileID: -9163845432942876144, guid: dce535271c99bd94997e48e3110f1216, type: 3}
    - {fileID: 274105561321471017, guid: dce535271c99bd94997e48e3110f1216, type: 3}
    - {fileID: -2421984855886611130, guid: dce535271c99bd94997e48e3110f1216, type: 3}
    - {fileID: 4878197502388672006, guid: dce535271c99bd94997e48e3110f1216, type: 3}
    - {fileID: -7857071600689890512, guid: dce535271c99bd94997e48e3110f1216, type: 3}
  m_AnimationClipSettings:
    serializedVersion: 2
    m_AdditiveReferencePoseClip: {fileID: 0}
    m_AdditiveReferencePoseTime: 0
    m_StartTime: 0
    m_StopTime: 9.916667
    m_OrientationOffsetY: 0
    m_Level: 0
    m_CycleOffset: 0
    m_HasAdditiveReferencePose: 0
    m_LoopTime: 1
    m_LoopBlend: 0
    m_LoopBlendOrientation: 0
    m_LoopBlendPositionY: 0
    m_LoopBlendPositionXZ: 0
    m_KeepOriginalOrientation: 0
    m_KeepOriginalPositionY: 1
    m_KeepOriginalPositionXZ: 0
    m_HeightFromFeet: 0
    m_Mirror: 0
  m_EditorCurves:
  - curve:
      serializedVersion: 2
      m_Curve:
      - serializedVersion: 3
        time: 0
        value: -385
        inSlope: 0
        outSlope: 0
        tangentMode: 136
        weightedMode: 0
        inWeight: 0.33333334
        outWeight: 0.33333334
      m_PreInfinity: 2
      m_PostInfinity: 2
      m_RotationOrder: 4
    attribute: m_AnchoredPosition.y
    path: 
    classID: 224
    script: {fileID: 0}
  - curve:
      serializedVersion: 2
      m_Curve:
      - serializedVersion: 3
        time: 0
        value: 1011
        inSlope: 0
        outSlope: 0
        tangentMode: 136
        weightedMode: 0
        inWeight: 0.33333334
        outWeight: 0.33333334
      - serializedVersion: 3
        time: 5
        value: -1062
        inSlope: 0
        outSlope: 0
        tangentMode: 136
        weightedMode: 0
        inWeight: 0.33333334
        outWeight: 0.33333334
      - serializedVersion: 3
        time: 9.916667
        value: 1122
        inSlope: 0
        outSlope: 0
        tangentMode: 136
        weightedMode: 0
        inWeight: 0.33333334
        outWeight: 0.33333334
      m_PreInfinity: 2
      m_PostInfinity: 2
      m_RotationOrder: 4
    attribute: m_AnchoredPosition.x
    path: 
    classID: 224
    script: {fileID: 0}
  - curve:
      serializedVersion: 2
      m_Curve:
      - serializedVersion: 3
        time: 0
        value: 0
        inSlope: 0
        outSlope: 0
        tangentMode: 136
        weightedMode: 0
        inWeight: 0.33333334
        outWeight: 0.33333334
      - serializedVersion: 3
        time: 5
        value: 0
        inSlope: 0
        outSlope: 0
        tangentMode: 136
        weightedMode: 0
        inWeight: 0.33333334
        outWeight: 0.33333334
      - serializedVersion: 3
        time: 5.0666666
        value: 0
        inSlope: 0
        outSlope: 0
        tangentMode: 136
        weightedMode: 0
        inWeight: 0.33333334
        outWeight: 0.33333334
      m_PreInfinity: 2
      m_PostInfinity: 2
      m_RotationOrder: 4
    attribute: localEulerAnglesRaw.x
    path: 
    classID: 224
    script: {fileID: 0}
  - curve:
      serializedVersion: 2
      m_Curve:
      - serializedVersion: 3
        time: 0
        value: 0
        inSlope: 0
        outSlope: 0
        tangentMode: 136
        weightedMode: 0
        inWeight: 0.33333334
        outWeight: 0.33333334
      - serializedVersion: 3
        time: 5
        value: 0
        inSlope: 0
        outSlope: 0
        tangentMode: 136
        weightedMode: 0
        inWeight: 0.33333334
        outWeight: 0.33333334
      - serializedVersion: 3
        time: 5.0666666
        value: 180
        inSlope: 0
        outSlope: 0
        tangentMode: 136
        weightedMode: 0
        inWeight: 0.33333334
        outWeight: 0.33333334
      m_PreInfinity: 2
      m_PostInfinity: 2
      m_RotationOrder: 4
    attribute: localEulerAnglesRaw.y
    path: 
    classID: 224
    script: {fileID: 0}
  - curve:
      serializedVersion: 2
      m_Curve:
      - serializedVersion: 3
        time: 0
        value: 0
        inSlope: 0
        outSlope: 0
        tangentMode: 136
        weightedMode: 0
        inWeight: 0.33333334
        outWeight: 0.33333334
      - serializedVersion: 3
        time: 5
        value: 0
        inSlope: 0
        outSlope: 0
        tangentMode: 136
        weightedMode: 0
        inWeight: 0.33333334
        outWeight: 0.33333334
      - serializedVersion: 3
        time: 5.0666666
        value: 0
        inSlope: 0
        outSlope: 0
        tangentMode: 136
        weightedMode: 0
        inWeight: 0.33333334
        outWeight: 0.33333334
      m_PreInfinity: 2
      m_PostInfinity: 2
      m_RotationOrder: 4
    attribute: localEulerAnglesRaw.z
    path: 
    classID: 224
    script: {fileID: 0}
  m_EulerEditorCurves:
  - curve:
      serializedVersion: 2
      m_Curve: []
      m_PreInfinity: 2
      m_PostInfinity: 2
      m_RotationOrder: 4
    attribute: m_LocalEulerAngles.x
    path: 
    classID: 224
    script: {fileID: 0}
  - curve:
      serializedVersion: 2
      m_Curve: []
      m_PreInfinity: 2
      m_PostInfinity: 2
      m_RotationOrder: 4
    attribute: m_LocalEulerAngles.y
    path: 
    classID: 224
    script: {fileID: 0}
  - curve:
      serializedVersion: 2
      m_Curve: []
      m_PreInfinity: 2
      m_PostInfinity: 2
      m_RotationOrder: 4
    attribute: m_LocalEulerAngles.z
    path: 
    classID: 224
    script: {fileID: 0}
  m_HasGenericRootTransform: 1
  m_HasMotionFloatCurves: 0
  m_Events: []
