%YAML 1.1
%TAG !u! tag:unity3d.com,2011:
--- !u!74 &7400000
AnimationClip:
  m_ObjectHideFlags: 0
  m_CorrespondingSourceObject: {fileID: 0}
  m_PrefabInstance: {fileID: 0}
  m_PrefabAsset: {fileID: 0}
  m_Name: Attack NorthWest
  serializedVersion: 6
  m_Legacy: 0
  m_Compressed: 0
  m_UseHighQualityCurve: 1
  m_RotationCurves: []
  m_CompressedRotationCurves: []
  m_EulerCurves: []
  m_PositionCurves: []
  m_ScaleCurves: []
  m_FloatCurves: []
  m_PPtrCurves:
  - curve:
    - time: 0
      value: {fileID: -8684890778418396770, guid: bba953db774b9d347b906c20ca9d4e75,
        type: 3}
    - time: 0.083333336
      value: {fileID: 786708024946465659, guid: bba953db774b9d347b906c20ca9d4e75,
        type: 3}
    - time: 0.16666667
      value: {fileID: -3763161209576263859, guid: bba953db774b9d347b906c20ca9d4e75,
        type: 3}
    - time: 0.25
      value: {fileID: -6693087463771764181, guid: bba953db774b9d347b906c20ca9d4e75,
        type: 3}
    - time: 0.33333334
      value: {fileID: -2753407630391696093, guid: bba953db774b9d347b906c20ca9d4e75,
        type: 3}
    - time: 0.41666666
      value: {fileID: 2977590246448586937, guid: bba953db774b9d347b906c20ca9d4e75,
        type: 3}
    - time: 0.5
      value: {fileID: -929080754043534733, guid: bba953db774b9d347b906c20ca9d4e75,
        type: 3}
    - time: 0.5833333
      value: {fileID: 3016804269588840872, guid: c1a54b1b0798c31498578886801f8648,
        type: 3}
    - time: 0.6666667
      value: {fileID: -5118222588965493711, guid: c1a54b1b0798c31498578886801f8648,
        type: 3}
    - time: 0.75
      value: {fileID: 5713204529468636278, guid: c1a54b1b0798c31498578886801f8648,
        type: 3}
    - time: 0.8333333
      value: {fileID: -243785524993874211, guid: c1a54b1b0798c31498578886801f8648,
        type: 3}
    - time: 0.9166667
      value: {fileID: 5569482071935969616, guid: c1a54b1b0798c31498578886801f8648,
        type: 3}
    - time: 1
      value: {fileID: -9179373221881011197, guid: c1a54b1b0798c31498578886801f8648,
        type: 3}
    - time: 1.0833334
      value: {fileID: -8580451382192786226, guid: c1a54b1b0798c31498578886801f8648,
        type: 3}
    attribute: m_Sprite
    path: 
    classID: 212
    script: {fileID: 0}
  m_SampleRate: 12
  m_WrapMode: 0
  m_Bounds:
    m_Center: {x: 0, y: 0, z: 0}
    m_Extent: {x: 0, y: 0, z: 0}
  m_ClipBindingConstant:
    genericBindings:
    - serializedVersion: 2
      path: 0
      attribute: 0
      script: {fileID: 0}
      typeID: 212
      customType: 23
      isPPtrCurve: 1
    pptrCurveMapping:
    - {fileID: -8684890778418396770, guid: bba953db774b9d347b906c20ca9d4e75, type: 3}
    - {fileID: 786708024946465659, guid: bba953db774b9d347b906c20ca9d4e75, type: 3}
    - {fileID: -3763161209576263859, guid: bba953db774b9d347b906c20ca9d4e75, type: 3}
    - {fileID: -6693087463771764181, guid: bba953db774b9d347b906c20ca9d4e75, type: 3}
    - {fileID: -2753407630391696093, guid: bba953db774b9d347b906c20ca9d4e75, type: 3}
    - {fileID: 2977590246448586937, guid: bba953db774b9d347b906c20ca9d4e75, type: 3}
    - {fileID: -929080754043534733, guid: bba953db774b9d347b906c20ca9d4e75, type: 3}
    - {fileID: 3016804269588840872, guid: c1a54b1b0798c31498578886801f8648, type: 3}
    - {fileID: -5118222588965493711, guid: c1a54b1b0798c31498578886801f8648, type: 3}
    - {fileID: 5713204529468636278, guid: c1a54b1b0798c31498578886801f8648, type: 3}
    - {fileID: -243785524993874211, guid: c1a54b1b0798c31498578886801f8648, type: 3}
    - {fileID: 5569482071935969616, guid: c1a54b1b0798c31498578886801f8648, type: 3}
    - {fileID: -9179373221881011197, guid: c1a54b1b0798c31498578886801f8648, type: 3}
    - {fileID: -8580451382192786226, guid: c1a54b1b0798c31498578886801f8648, type: 3}
  m_AnimationClipSettings:
    serializedVersion: 2
    m_AdditiveReferencePoseClip: {fileID: 0}
    m_AdditiveReferencePoseTime: 0
    m_StartTime: 0
    m_StopTime: 1.1666667
    m_OrientationOffsetY: 0
    m_Level: 0
    m_CycleOffset: 0
    m_HasAdditiveReferencePose: 0
    m_LoopTime: 0
    m_LoopBlend: 0
    m_LoopBlendOrientation: 0
    m_LoopBlendPositionY: 0
    m_LoopBlendPositionXZ: 0
    m_KeepOriginalOrientation: 0
    m_KeepOriginalPositionY: 1
    m_KeepOriginalPositionXZ: 0
    m_HeightFromFeet: 0
    m_Mirror: 0
  m_EditorCurves: []
  m_EulerEditorCurves: []
  m_HasGenericRootTransform: 0
  m_HasMotionFloatCurves: 0
  m_Events:
  - time: 0.6666667
    functionName: Attack
    data: 
    objectReferenceParameter: {fileID: 0}
    floatParameter: 0
    intParameter: 0
    messageOptions: 0
